exam_type,patient,image_name,patch_label,patient_label,phase
re,477,477RE_s5c0x189921-1600y74472-1200m140.png,3,3,train
re,62,062RE_s1c0x158545-1600y112496-1200m11563.png,3,3,train
re,304,304RE_s1c0x93433-1600y12864-1200m150.png,3,3,train
re,695,695RE_s0c0x98952-1600y122176-1200m2891.png,3,3,train
re,218,218RE_s2c0x129664-1600y115791-1200m3533.png,3,3,train
re,638,638RE_s1c0x152344-1600y133923-1200m17491.png,0,0,train
re,707,707RE_s1c0x112152-1600y61134-1200m3432.png,3,3,train
re,51,051RE_s1c0x230052-1600y128599-1200m5682.png,2,1,train
re,490,490RE_s3c0x179224-1600y108955-1200m1166.png,3,0,train
re,460,460RE_s0c0x148359-1600y151080-1200m7525.png,3,3,train
re,24,024RE_s3c0x146770-1600y148650-1200m1463.png,1,1,train
re,77,077RE_s1c0x287520-1600y27900-1200m1205.png,0,0,train
re,458,458RE_s0c0x152522-1600y3229-1200m62.png,0,0,train
re,458,458RE_s0c0x191077-1600y92166-1200m8314.png,0,0,train
re,195,195RE_s1c0x60740-1600y53603-1200m1895.png,3,3,train
re,20,020RE_s7c0x130615-1600y117590-1200m626.png,0,0,train
re,218,218RE_s2c0x133953-1600y117933-1200m3662.png,3,3,train
re,214,214RE_s2c0x140997-1600y38546-1200m1158.png,3,3,train
re,457,457RE_s1c0x184342-1600y67498-1200m2271.png,2,3,train
re,96,096RE_s2c0x179873-1600y53556-1200m1583.png,2,2,train
re,699,699RE_s1c0x116663-1600y56776-1200m2393.png,3,3,train
re,74,074RE_s0c0x109165-1600y9659-1200m162.png,3,3,train
re,73,073RE_s1c0x130615-1600y92184-1200m3218.png,2,2,train
re,693,693RE_s2c0x162621-1600y99702-1200m5238.png,2,2,train
re,334,334RE_s0c0x166975-1600y105035-1200m4349.png,3,2,train
re,349,349RE_s1c0x204429-1600y21463-1200m1069.png,3,3,train
re,631,631RE_s0c0x162425-1600y123262-1200m6124.png,1,3,train
re,444,444RE_s1c0x202076-1600y51462-1200m2824.png,3,3,train
re,864,864RE_s1c0x104770-1600y54646-1200m1382.png,0,0,train
re,638,638RE_s1c0x163777-1600y75008-1200m9173.png,0,0,train
re,171,171RE_s0c0x207102-1600y13942-1200m453.png,2,3,train
re,51,051RE_s1c0x214293-1600y28918-1200m837.png,2,1,train
re,331,331RE_s5c0x89023-1600y95937-1200m351.png,0,0,train
re,77,077RE_s0c0x178098-1600y65449-1200m3953.png,0,0,train
re,349,349RE_s1c0x184446-1600y6425-1200m142.png,3,3,train
re,355,355RE_s0c0x80971-1600y25679-1200m570.png,3,3,train
re,695,695RE_s0c0x93212-1600y84671-1200m2099.png,3,3,train
re,865,865RE_s1c0x203877-1600y68562-1200m6098.png,3,3,train
re,182,182RE_s0c0x250337-1600y35396-1200m4198.png,0,0,train
re,64,064RE_s0c0x80039-1600y67493-1200m2947.png,3,3,train
re,631,631RE_s0c0x142442-1600y146714-1200m7435.png,0,3,train
re,49,049RE_s1c0x86704-1600y35326-1200m1716.png,0,0,train
re,490,490RE_s3c0x170673-1600y145395-1200m5116.png,3,0,train
re,22,022RE_s5c0x99277-1600y167172-1200m665.png,2,3,train
re,520,520RE_s2c0x156379-1600y31110-1200m1558.png,1,1,train
re,670,670RE_s3c0x166887-1600y61516-1200m34.png,3,3,train
re,588,588RE_s2c0x238748-1600y110524-1200m3676.png,3,3,train
re,334,334RE_s0c0x111244-1600y77167-1200m2598.png,2,2,train
re,304,304RE_s1c0x101915-1600y66462-1200m1449.png,3,3,train
re,520,520RE_s2c0x113553-1600y16081-1200m576.png,1,1,train
re,444,444RE_s1c0x235001-1600y39699-1200m1723.png,3,3,train
re,491,491RE_s1c0x118052-1600y75018-1200m2645.png,1,3,train
re,631,631RE_s0c0x133894-1600y146712-1200m7429.png,1,3,train
re,458,458RE_s0c0x186793-1600y92165-1200m8311.png,0,0,train
re,218,218RE_s2c0x122523-1600y77221-1200m1320.png,3,3,train
re,668,668RE_s1c0x165001-1600y130788-1200m13079.png,3,3,train
re,899,899RE_s3c0x274584-1600y146440-1200m3231.png,3,2,train
re,171,171RE_s0c0x212820-1600y154308-1200m13241.png,3,3,train
re,693,693RE_s2c0x165476-1600y135056-1200m6081.png,0,2,train
re,460,460RE_s0c0x126960-1600y29996-1200m1170.png,3,3,train
re,379,379RE_s0c0x117041-1600y14964-1200m1225.png,3,3,train
re,670,670RE_s3c0x169745-1600y62589-1200m47.png,3,3,train
re,377,377RE_s1c0x187068-1600y144707-1200m10117.png,0,0,train
re,273,273RE_s1c0x50379-1600y61071-1200m3666.png,3,3,train
re,360,360RE_s0c0x159678-1600y77187-1200m2124.png,3,3,train
re,707,707RE_s1c0x117877-1600y58995-1200m3178.png,3,3,train
re,380,380RE_s1c0x158247-1600y32111-1200m1793.png,2,0,train
re,695,695RE_s0c0x87501-1600y95404-1200m2389.png,3,3,train
re,54,054RE_s0c0x169669-1600y83644-1200m3146.png,3,3,train
re,203,203RE_s1c0x72098-1600y84644-1200m4765.png,0,0,train
re,56,056RE_s0c0x123576-1600y38570-1200m732.png,0,0,train
re,444,444RE_s1c0x239277-1600y81479-1200m5049.png,3,3,train
re,670,670RE_s3c0x171179-1600y63656-1200m59.png,3,3,train
re,695,695RE_s0c0x96080-1600y123244-1200m2901.png,3,3,train
re,214,214RE_s0c0x182813-1600y19366-1200m119.png,3,3,train
re,695,695RE_s0c0x101816-1600y116826-1200m2834.png,3,3,train
re,875,875RE_s0c0x130937-1600y55716-1200m2404.png,3,2,train
re,95,095RE_s1c0x126284-1600y64269-1200m3596.png,0,0,train
re,335,335RE_s0c0x113650-1600y25724-1200m508.png,2,2,train
re,695,695RE_s0c0x96091-1600y116826-1200m2830.png,3,3,train
re,214,214RE_s2c0x118164-1600y25692-1200m525.png,3,3,train
re,400,400RE_s0c0x205255-1600y12832-1200m524.png,2,3,train
re,785,785RE_s4c0x181445-1600y70067-1200m354.png,0,0,train
re,95,095RE_s1c0x122000-1600y63190-1200m3523.png,0,0,train
re,304,304RE_s1c0x93431-1600y18244-1200m245.png,3,3,train
re,355,355RE_s0c0x96670-1600y36431-1200m975.png,3,3,train
re,335,335RE_s0c0x142232-1600y60016-1200m2622.png,2,2,train
re,203,203RE_s1c0x82122-1600y85712-1200m4842.png,0,0,train
re,520,520RE_s2c0x120676-1600y18231-1200m719.png,1,1,train
re,62,062RE_s1c0x159956-1600y60002-1200m5830.png,3,3,train
re,363,363RE_s1c0x154043-1600y84652-1200m3333.png,1,2,train
re,77,077RE_s1c0x290377-1600y60052-1200m3116.png,0,0,train
re,693,693RE_s2c0x206913-1600y57917-1200m2892.png,1,2,train
re,95,095RE_s1c0x156281-1600y111426-1200m7013.png,0,0,train
re,307,307RE_s0c0x136379-1600y120028-1200m8676.png,3,1,train
re,477,477RE_s5c0x132790-1600y94802-1200m572.png,3,3,train
re,470,470RE_s0c0x132502-1600y55737-1200m899.png,2,3,train
re,448,448RE_s1c0x169333-1600y87846-1200m2488.png,3,3,train
re,400,400RE_s0c0x150841-1600y107134-1200m8584.png,2,3,train
re,166,166RE_s1c0x185358-1600y47192-1200m1298.png,0,0,train
re,304,304RE_s1c0x84857-1600y32168-1200m537.png,3,3,train
re,477,477RE_s5c0x155653-1600y89470-1200m448.png,3,3,train
re,451,451RE_s1c0x177700-1600y105036-1200m13793.png,0,0,train
re,273,273RE_s1c0x48950-1600y61071-1200m3665.png,3,3,train
re,662,662RE_s3c0x143393-1600y134754-1200m1264.png,3,1,train
re,77,077RE_s1c0x288945-1600y60053-1200m3115.png,0,0,train
re,662,662RE_s1c0x136550-1600y10623-1200m345.png,2,1,train
re,400,400RE_s0c0x225219-1600y32132-1200m2617.png,2,3,train
re,273,273RE_s1c0x80380-1600y73916-1200m4650.png,3,3,train
re,182,182RE_s0c0x80364-1600y62114-1200m7310.png,1,0,train
re,77,077RE_s1c0x290380-1600y58970-1200m3055.png,0,0,train
re,693,693RE_s2c0x146784-1600y87902-1200m4461.png,0,2,train
re,899,899RE_s3c0x223150-1600y101409-1200m443.png,3,2,train
re,331,331RE_s3c0x143459-1600y159629-1200m14215.png,0,0,train
re,304,304RE_s1c0x93431-1600y17171-1200m226.png,3,3,train
re,64,064RE_s0c0x31447-1600y57853-1200m2397.png,3,3,train
re,95,095RE_s1c0x157705-1600y111426-1200m7014.png,0,0,train
re,520,520RE_s2c0x149253-1600y26836-1200m1291.png,1,1,train
re,49,049RE_s1c0x88130-1600y37468-1200m1862.png,0,0,train
re,95,095RE_s1c0x102043-1600y16060-1200m380.png,0,0,train
re,699,699RE_s1c0x118086-1600y56776-1200m2394.png,3,3,train
re,363,363RE_s1c0x108323-1600y59996-1200m2108.png,2,2,train
re,273,273RE_s1c0x51803-1600y73909-1200m4630.png,3,3,train
re,251,251RE_s0c0x124860-1600y75004-1200m1865.png,3,3,train
re,54,054RE_s0c0x165387-1600y67540-1200m2428.png,3,3,train
re,457,457RE_s1c0x111492-1600y78206-1200m3095.png,2,3,train
re,182,182RE_s0c0x88921-1600y66410-1200m7826.png,1,0,train
re,58,058RE_s2c0x195720-1600y112535-1200m5880.png,0,0,train
re,73,073RE_s1c0x66384-1600y84674-1200m2764.png,3,2,train
re,101,101RE_s0c0x76333-1600y32144-1200m1098.png,3,3,train
re,218,218RE_s2c0x125381-1600y114721-1200m3466.png,3,3,train
re,366,366RE_s0c0x152510-1600y84663-1200m3871.png,2,3,train
re,331,331RE_s3c0x117861-1600y53488-1200m4336.png,0,0,train
re,385,385RE_s1c0x115023-1600y12884-1200m195.png,3,3,train
re,693,693RE_s2c0x179788-1600y60053-1200m2988.png,2,2,train
re,385,385RE_s1c0x109324-1600y10748-1200m119.png,3,3,train
re,707,707RE_s1c0x113584-1600y61135-1200m3433.png,3,3,train
re,53,053RE_s4c0x156888-1600y42914-1200m699.png,3,3,train
re,520,520RE_s2c0x113553-1600y21466-1200m930.png,1,1,train
re,699,699RE_s1c0x115234-1600y56776-1200m2392.png,3,3,train
re,638,638RE_s2c0x71887-1600y205752-1200m1523.png,0,0,train
re,334,334RE_s0c0x95545-1600y64312-1200m1764.png,3,2,train
re,480,480RE_s2c0x97986-1600y51644-1200m448.png,0,0,train
re,534,534RE_s0c0x131113-1600y98581-1200m3576.png,1,0,train
re,182,182RE_s0c0x106056-1600y83570-1200m9794.png,1,0,train
re,349,349RE_s1c0x107278-1600y22504-1200m1092.png,3,3,train
re,96,096RE_s2c0x162751-1600y126420-1200m7911.png,2,2,train
re,182,182RE_s0c0x77489-1600y42838-1200m5005.png,1,0,train
re,166,166RE_s1c0x169592-1600y41835-1200m1107.png,0,0,train
re,379,379RE_s0c0x118467-1600y13890-1200m1092.png,3,3,train
re,875,875RE_s0c0x123782-1600y90021-1200m4233.png,3,2,train
re,448,448RE_s1c0x123655-1600y47152-1200m926.png,3,3,train
re,64,064RE_s0c0x50055-1600y60000-1200m2526.png,3,3,train
re,377,377RE_s1c0x149927-1600y138256-1200m9729.png,0,0,train
re,477,477RE_s5c0x122805-1600y104446-1200m888.png,3,3,train
re,875,875RE_s0c0x135221-1600y78239-1200m3547.png,3,2,train
re,168,168RE_s3c0x135428-1600y112450-1200m3785.png,3,3,train
re,218,218RE_s2c0x119675-1600y97581-1200m2399.png,3,3,train
re,451,451RE_s1c0x166298-1600y58966-1200m7236.png,0,0,train
re,182,182RE_s0c0x74618-1600y29950-1200m3410.png,1,0,train
re,166,166RE_s1c0x171010-1600y41836-1200m1108.png,0,0,train
re,460,460RE_s0c0x122688-1600y36418-1200m1464.png,3,3,train
re,491,491RE_s1c0x152329-1600y83574-1200m2886.png,1,3,train
re,178,178RE_s2c0x120676-1600y129590-1200m3455.png,0,0,train
re,638,638RE_s2c0x74742-1600y182197-1200m820.png,0,0,train
re,251,251RE_s0c0x126282-1600y76077-1200m1900.png,3,3,train
re,379,379RE_s0c0x149900-1600y82470-1200m10133.png,3,3,train
re,699,699RE_s1c0x128096-1600y42862-1200m1200.png,3,3,train
re,477,477RE_s5c0x167081-1600y79812-1200m241.png,3,3,train
re,182,182RE_s0c0x78915-1600y43908-1200m5138.png,1,0,train
re,58,058RE_s1c0x103394-1600y92742-1200m418.png,0,0,train
re,668,668RE_s1c0x169271-1600y136134-1200m13501.png,3,3,train
re,451,451RE_s1c0x202000-1600y69671-1200m8789.png,0,0,train
re,22,022RE_s2c0x117754-1600y110746-1200m935.png,3,3,train
re,864,864RE_s1c0x110522-1600y103950-1200m2685.png,0,0,train
re,693,693RE_s2c0x188362-1600y64356-1200m3208.png,2,2,train
re,699,699RE_s1c0x202376-1600y95384-1200m5851.png,3,3,train
re,785,785RE_s4c0x197145-1600y78682-1200m679.png,0,0,train
re,859,859RE_s0c0x81085-1600y55724-1200m4977.png,3,2,train
re,379,379RE_s0c0x107066-1600y39618-1200m4498.png,3,3,train
re,457,457RE_s1c0x110061-1600y73916-1200m2753.png,3,3,train
re,366,366RE_s0c0x158208-1600y57894-1200m1861.png,3,3,train
re,441,441RE_s2c0x95210-1600y116430-1200m1207.png,3,2,train
re,195,195RE_s1c0x82153-1600y62157-1200m2648.png,3,3,train
re,166,166RE_s1c0x171017-1600y39686-1200m1037.png,0,0,train
re,20,020RE_s7c0x129187-1600y117590-1200m625.png,0,0,train
re,363,363RE_s1c0x164020-1600y5336-1200m46.png,2,2,train
re,477,477RE_s5c0x152789-1600y92680-1200m522.png,3,3,train
re,335,335RE_s0c0x110801-1600y36436-1200m1177.png,2,2,train
re,74,074RE_s0c0x117710-1600y26818-1200m742.png,3,3,train
re,480,480RE_s2c0x86520-1600y63464-1200m812.png,0,0,train
re,24,024RE_s3c0x158199-1600y124026-1200m655.png,1,1,train
re,625,625RE_s0c0x119584-1600y67513-1200m2907.png,3,0,train
re,693,693RE_s2c0x208340-1600y68660-1200m3419.png,2,2,train
re,58,058RE_s1c0x81956-1600y117398-1200m1702.png,1,0,train
re,693,693RE_s2c0x209770-1600y85787-1200m4364.png,2,2,train
re,218,218RE_s2c0x129659-1600y78292-1200m1381.png,3,3,train
re,457,457RE_s1c0x211491-1600y100737-1200m4915.png,3,3,train
re,218,218RE_s2c0x123948-1600y82563-1200m1596.png,3,3,train
re,95,095RE_s1c0x144883-1600y91051-1200m5240.png,0,0,train
re,360,360RE_s0c0x153968-1600y53602-1200m1425.png,3,3,train
re,400,400RE_s0c0x156549-1600y108205-1200m8604.png,2,3,train
re,355,355RE_s0c0x99526-1600y32126-1200m821.png,3,3,train
re,73,073RE_s1c0x133469-1600y107176-1200m4258.png,2,2,train
re,631,631RE_s0c0x141017-1600y145640-1200m7369.png,1,3,train
re,349,349RE_s1c0x78714-1600y65360-1200m5462.png,3,3,train
re,864,864RE_s1c0x99070-1600y50354-1200m1250.png,0,0,train
re,304,304RE_s1c0x66208-1600y128645-1200m2962.png,3,3,train
re,355,355RE_s0c0x85268-1600y21406-1200m416.png,3,3,train
re,448,448RE_s1c0x117923-1600y56774-1200m1314.png,3,3,train
re,448,448RE_s1c0x119356-1600y57846-1200m1358.png,3,3,train
re,62,062RE_s1c0x205652-1600y99642-1200m10109.png,3,3,train
re,785,785RE_s4c0x205739-1600y75463-1200m570.png,0,0,train
re,214,214RE_s2c0x122453-1600y29983-1200m737.png,3,3,train
re,335,335RE_s0c0x102253-1600y25716-1200m500.png,2,2,train
re,707,707RE_s1c0x189379-1600y45072-1200m1806.png,2,3,train
re,451,451RE_s1c0x180556-1600y57892-1200m7094.png,0,0,train
re,214,214RE_s2c0x148165-1600y38551-1200m1163.png,3,3,train
re,22,022RE_s5c0x100702-1600y159678-1200m388.png,2,3,train
re,699,699RE_s1c0x119510-1600y56777-1200m2395.png,3,3,train
re,859,859RE_s0c0x221063-1600y56834-1200m5187.png,3,2,train
re,168,168RE_s3c0x166854-1600y94216-1200m3240.png,3,3,train
re,380,380RE_s1c0x199676-1600y20357-1200m862.png,2,0,train
re,448,448RE_s1c0x173609-1600y91056-1200m2593.png,3,3,train
re,458,458RE_s0c0x242467-1600y82547-1200m7739.png,0,0,train
re,96,096RE_s2c0x229889-1600y58908-1200m2045.png,2,2,train
re,95,095RE_s1c0x102042-1600y17128-1200m411.png,0,0,train
re,458,458RE_s0c0x238177-1600y84682-1200m7888.png,0,0,train
re,400,400RE_s0c0x206690-1600y16036-1200m874.png,2,3,train
re,457,457RE_s1c0x110060-1600y74990-1200m2840.png,3,3,train
re,195,195RE_s1c0x65038-1600y34304-1200m743.png,3,3,train
re,380,380RE_s1c0x192530-1600y29975-1200m1623.png,2,0,train
re,58,058RE_s1c0x73402-1600y89510-1200m285.png,2,0,train
re,699,699RE_s1c0x203806-1600y93242-1200m5705.png,3,3,train
re,491,491RE_s1c0x166657-1600y32133-1200m1144.png,1,3,train
re,477,477RE_s5c0x157078-1600y86248-1200m376.png,3,3,train
re,448,448RE_s1c0x175037-1600y91055-1200m2594.png,3,3,train
re,377,377RE_s1c0x145674-1600y26774-1200m815.png,0,0,train
re,360,360RE_s0c0x155402-1600y54674-1200m1461.png,3,3,train
re,864,864RE_s1c0x100536-1600y69652-1200m1808.png,0,0,train
re,518,518RE_s0c0x195225-1600y99670-1200m6352.png,2,0,train
re,785,785RE_s0c0x208849-1600y36430-1200m2192.png,0,0,train
re,460,460RE_s0c0x158379-1600y134998-1200m6885.png,3,3,train
re,670,670RE_s3c0x182588-1600y82974-1200m400.png,3,3,train
re,95,095RE_s1c0x170581-1600y55709-1200m2992.png,0,0,train
re,448,448RE_s1c0x150761-1600y67515-1200m1820.png,3,3,train
re,51,051RE_s1c0x210015-1600y12843-1200m245.png,2,1,train
re,304,304RE_s1c0x74786-1600y117906-1200m2822.png,3,3,train
re,865,865RE_s1c0x138171-1600y7480-1200m366.png,3,3,train
re,588,588RE_s2c0x228734-1600y67650-1200m1679.png,3,3,train
re,534,534RE_s0c0x135409-1600y98584-1200m3579.png,1,0,train
re,64,064RE_s0c0x40032-1600y63203-1200m2674.png,3,3,train
re,171,171RE_s0c0x228493-1600y151076-1200m12954.png,3,3,train
re,307,307RE_s0c0x179237-1600y20389-1200m1212.png,3,1,train
re,693,693RE_s2c0x191220-1600y35440-1200m1407.png,1,2,train
re,670,670RE_s3c0x172606-1600y71144-1200m173.png,3,3,train
re,307,307RE_s0c0x204960-1600y116824-1200m8467.png,3,1,train
re,785,785RE_s4c0x195717-1600y66855-1200m249.png,0,0,train
re,56,056RE_s0c0x123573-1600y39639-1200m758.png,0,0,train
re,24,024RE_s3c0x145334-1600y147578-1200m1426.png,1,1,train
re,224,224RE_s1c0x166978-1600y17276-1200m43.png,0,3,train
re,203,203RE_s1c0x99246-1600y130714-1200m7818.png,0,0,train
re,460,460RE_s0c0x158375-1600y6460-1200m137.png,3,3,train
re,899,899RE_s1c0x280409-1600y69666-1200m2682.png,3,2,train
re,865,865RE_s1c0x209589-1600y54648-1200m4779.png,3,3,train
re,166,166RE_s1c0x185357-1600y48260-1200m1333.png,0,0,train
re,864,864RE_s1c0x101940-1600y66442-1200m1721.png,0,0,train
re,51,051RE_s1c0x230054-1600y118924-1200m5241.png,2,1,train
re,363,363RE_s1c0x111181-1600y59996-1200m2110.png,2,2,train
re,480,480RE_s2c0x97986-1600y45228-1200m271.png,0,0,train
re,366,366RE_s0c0x158211-1600y85736-1200m3948.png,2,3,train
re,22,022RE_s5c0x96424-1600y163962-1200m554.png,3,3,train
re,480,480RE_s2c0x86521-1600y64534-1200m856.png,0,0,train
re,54,054RE_s0c0x172515-1600y78287-1200m2897.png,3,3,train
re,670,670RE_s3c0x174033-1600y74363-1200m218.png,3,3,train
re,20,020RE_s7c0x123483-1600y110082-1200m199.png,0,0,train
re,460,460RE_s0c0x119834-1600y59999-1200m2608.png,3,3,train
re,444,444RE_s1c0x236417-1600y76121-1200m4727.png,3,3,train
re,457,457RE_s1c0x111492-1600y73918-1200m2754.png,3,3,train
re,64,064RE_s0c0x40041-1600y45011-1200m1531.png,3,3,train
re,49,049RE_s1c0x133830-1600y33197-1200m1602.png,0,0,train
re,251,251RE_s0c0x130555-1600y73933-1200m1835.png,3,3,train
re,477,477RE_s5c0x122804-1600y102293-1200m826.png,3,3,train
re,457,457RE_s1c0x202915-1600y115729-1200m6022.png,3,3,train
re,865,865RE_s1c0x203885-1600y49308-1200m4226.png,3,3,train
re,470,470RE_s0c0x162502-1600y23595-1200m247.png,2,3,train
re,662,662RE_s3c0x121987-1600y115486-1200m318.png,3,1,train
re,470,470RE_s0c0x132502-1600y68588-1200m1158.png,2,3,train
re,379,379RE_s0c0x132770-1600y18207-1200m1646.png,3,3,train
re,379,379RE_s0c0x141354-1600y14977-1200m1242.png,3,3,train
re,166,166RE_s3c0x90425-1600y65684-1200m214.png,0,0,train
re,534,534RE_s0c0x133973-1600y99666-1200m3620.png,1,0,train
re,73,073RE_s1c0x70642-1600y94289-1200m3331.png,3,2,train
re,195,195RE_s1c0x70753-1600y54668-1200m1991.png,3,3,train
re,631,631RE_s0c0x150976-1600y111474-1200m5550.png,0,3,train
re,385,385RE_s1c0x109324-1600y11820-1200m153.png,3,3,train
re,62,062RE_s1c0x202792-1600y60020-1200m5860.png,3,3,train
re,101,101RE_s0c0x76335-1600y31064-1200m1023.png,3,3,train
re,448,448RE_s1c0x153626-1600y68587-1200m1870.png,3,3,train
re,171,171RE_s0c0x192796-1600y155377-1200m13326.png,3,3,train
re,377,377RE_s1c0x152784-1600y139326-1200m9801.png,0,0,train
re,58,058RE_s2c0x152874-1600y66454-1200m2995.png,0,0,train
re,51,051RE_s1c0x217146-1600y37496-1200m1275.png,2,1,train
re,785,785RE_s0c0x210278-1600y35358-1200m2084.png,0,0,train
re,458,458RE_s0c0x189649-1600y90021-1200m8193.png,0,0,train
re,588,588RE_s2c0x218728-1600y69796-1200m1763.png,3,3,train
re,62,062RE_s1c0x131378-1600y137120-1200m14196.png,3,3,train
re,54,054RE_s0c0x161095-1600y70753-1200m2551.png,3,3,train
re,58,058RE_s2c0x222844-1600y66474-1200m3044.png,0,0,train
re,96,096RE_s2c0x245569-1600y58910-1200m2056.png,1,2,train
re,379,379RE_s0c0x114180-1600y59988-1200m7289.png,3,3,train
re,360,360RE_s0c0x163946-1600y77191-1200m2127.png,3,3,train
re,534,534RE_s0c0x155375-1600y24626-1200m639.png,1,0,train
re,77,077RE_s0c0x168083-1600y91135-1200m6483.png,0,0,train
re,58,058RE_s1c0x83386-1600y118466-1200m1768.png,1,0,train
re,24,024RE_s3c0x153916-1600y143308-1200m1279.png,1,1,train
re,588,588RE_s2c0x265852-1600y88012-1200m2671.png,3,3,train
re,859,859RE_s0c0x205385-1600y73962-1200m6903.png,3,2,train
re,491,491RE_s1c0x162367-1600y50361-1200m1846.png,1,3,train
re,899,899RE_s1c0x278979-1600y56812-1200m2057.png,3,2,train
re,20,020RE_s7c0x169150-1600y135817-1200m1910.png,0,0,train
re,77,077RE_s1c0x271786-1600y64334-1200m3310.png,0,0,train
re,451,451RE_s1c0x160601-1600y83598-1200m10737.png,0,0,train
re,360,360RE_s0c0x169648-1600y50403-1200m1331.png,3,3,train
re,377,377RE_s1c0x149927-1600y139326-1200m9799.png,0,0,train
re,662,662RE_s1c0x152281-1600y72894-1200m3182.png,3,1,train
re,56,056RE_s2c0x280511-1600y30016-1200m1072.png,1,0,train
re,859,859RE_s0c0x219632-1600y60050-1200m5522.png,3,2,train
re,214,214RE_s2c0x171019-1600y34279-1200m971.png,3,3,train
re,875,875RE_s0c0x129509-1600y57854-1200m2471.png,3,2,train
re,875,875RE_s0c0x96655-1600y67530-1200m2881.png,3,2,train
re,588,588RE_s2c0x258711-1600y110524-1200m3690.png,3,3,train
re,53,053RE_s4c0x172603-1600y30066-1200m382.png,3,3,train
re,400,400RE_s0c0x218095-1600y18176-1200m1117.png,2,3,train
re,693,693RE_s2c0x161198-1600y122201-1200m5859.png,2,2,train
re,56,056RE_s2c0x280507-1600y32172-1200m1216.png,1,0,train
re,218,218RE_s2c0x126803-1600y114722-1200m3467.png,3,3,train
re,22,022RE_s5c0x103552-1600y165034-1200m596.png,3,3,train
re,458,458RE_s0c0x169613-1600y92173-1200m8299.png,0,0,train
re,335,335RE_s0c0x137962-1600y53576-1200m2287.png,2,2,train
re,448,448RE_s1c0x145043-1600y50355-1200m1069.png,3,3,train
re,366,366RE_s0c0x135376-1600y85734-1200m3932.png,2,3,train
re,534,534RE_s0c0x133974-1600y98583-1200m3578.png,1,0,train
re,349,349RE_s1c0x170138-1600y67522-1200m5773.png,3,3,train
re,499,499RE_s0c0x154135-1600y77167-1200m1989.png,1,2,train
re,520,520RE_s2c0x150678-1600y28975-1200m1418.png,1,1,train
re,58,058RE_s2c0x154296-1600y71796-1200m3399.png,0,0,train
re,73,073RE_s1c0x129182-1600y101830-1200m3905.png,2,2,train
re,53,053RE_s4c0x166872-1600y45061-1200m758.png,3,3,train
re,77,077RE_s1c0x288944-1600y62201-1200m3224.png,0,0,train
re,214,214RE_s0c0x182813-1600y17228-1200m96.png,3,3,train
re,331,331RE_s5c0x87588-1600y95936-1200m350.png,0,0,train
re,366,366RE_s0c0x141101-1600y46092-1200m968.png,2,3,train
re,441,441RE_s3c0x166889-1600y120562-1200m2552.png,2,2,train
re,73,073RE_s1c0x103506-1600y120042-1200m4978.png,1,2,train
re,491,491RE_s1c0x140930-1600y3230-1200m30.png,1,3,train
re,22,022RE_s5c0x93570-1600y163961-1200m552.png,2,3,train
re,360,360RE_s0c0x155400-1600y67522-1200m1846.png,3,3,train
re,49,049RE_s1c0x88130-1600y36400-1200m1790.png,0,0,train
re,273,273RE_s1c0x60386-1600y58921-1200m3508.png,3,3,train
re,441,441RE_s3c0x179786-1600y103404-1200m1610.png,2,2,train
re,520,520RE_s2c0x152104-1600y24698-1200m1166.png,1,1,train
re,470,470RE_s0c0x159653-1600y12842-1200m117.png,2,3,train
re,448,448RE_s1c0x116488-1600y55702-1200m1270.png,3,3,train
re,490,490RE_s3c0x217781-1600y145402-1200m5149.png,3,0,train
re,101,101RE_s0c0x80613-1600y58919-1200m3461.png,2,3,train
re,385,385RE_s1c0x112171-1600y11816-1200m155.png,3,3,train
re,363,363RE_s1c0x141166-1600y80346-1200m3077.png,0,2,train
re,400,400RE_s0c0x153697-1600y104998-1200m8549.png,2,3,train
re,457,457RE_s1c0x202927-1600y105009-1200m5221.png,3,3,train
re,693,693RE_s2c0x159769-1600y120060-1200m5823.png,2,2,train
re,457,457RE_s1c0x187201-1600y86764-1200m3831.png,3,3,train
re,335,335RE_s0c0x109368-1600y23583-1200m402.png,2,2,train
re,51,051RE_s1c0x225756-1600y116774-1200m5136.png,2,1,train
re,520,520RE_s2c0x150680-1600y27907-1200m1353.png,1,1,train
re,385,385RE_s1c0x120730-1600y12888-1200m199.png,3,3,train
re,56,056RE_s2c0x261939-1600y39671-1200m1697.png,0,0,train
re,51,051RE_s1c0x215746-1600y136094-1200m5980.png,1,1,train
re,355,355RE_s0c0x103805-1600y58910-1200m1761.png,3,3,train
re,631,631RE_s0c0x153884-1600y135994-1200m6811.png,0,3,train
re,444,444RE_s1c0x202075-1600y52530-1200m2925.png,3,3,train
re,334,334RE_s0c0x98393-1600y62169-1200m1623.png,3,2,train
re,224,224RE_s3c0x93848-1600y96712-1200m999.png,2,3,train
re,638,638RE_s1c0x155204-1600y169301-1200m21673.png,0,0,train
re,699,699RE_s1c0x126656-1600y62142-1200m2875.png,3,3,train
re,334,334RE_s0c0x98405-1600y93218-1200m3584.png,3,2,train
re,331,331RE_s3c0x109293-1600y27756-1200m1274.png,0,0,train
re,480,480RE_s0c0x167020-1600y49275-1200m1800.png,0,0,train
re,64,064RE_s0c0x58611-1600y29997-1200m711.png,3,3,train
re,203,203RE_s1c0x77820-1600y85710-1200m4839.png,0,0,train
re,491,491RE_s1c0x152332-1600y82506-1200m2861.png,1,3,train
re,62,062RE_s1c0x208514-1600y56808-1200m5517.png,3,3,train
re,166,166RE_s1c0x186789-1600y48260-1200m1334.png,0,0,train
re,363,363RE_s1c0x156896-1600y49298-1200m1569.png,1,2,train
re,171,171RE_s0c0x211386-1600y16088-1200m583.png,2,3,train
re,178,178RE_s2c0x144942-1600y137087-1200m3584.png,0,0,train
re,182,182RE_s0c0x74619-1600y34266-1200m3943.png,1,0,train
re,95,095RE_s1c0x169139-1600y117861-1200m7587.png,0,0,train
re,490,490RE_s3c0x182072-1600y106816-1200m948.png,3,0,train
re,458,458RE_s0c0x158206-1600y91102-1200m8232.png,0,0,train
re,366,366RE_s0c0x142525-1600y64300-1200m2345.png,2,3,train
re,273,273RE_s1c0x87521-1600y73923-1200m4655.png,3,3,train
re,49,049RE_s1c0x85276-1600y34256-1200m1642.png,0,0,train
re,53,053RE_s4c0x118331-1600y97540-1200m2801.png,3,3,train
re,864,864RE_s1c0x77678-1600y73946-1200m1906.png,0,0,train
re,96,096RE_s2c0x167025-1600y133912-1200m8575.png,1,2,train
re,49,049RE_s1c0x89555-1600y33186-1200m1571.png,0,0,train
re,865,865RE_s1c0x211018-1600y50376-1200m4341.png,3,3,train
re,668,668RE_s1c0x172124-1600y133998-1200m13350.png,3,3,train
re,707,707RE_s1c0x160753-1600y86852-1200m5717.png,3,3,train
re,491,491RE_s1c0x115190-1600y66406-1200m2358.png,1,3,train
re,859,859RE_s0c0x198238-1600y75035-1200m6997.png,3,2,train
re,54,054RE_s0c0x175365-1600y83648-1200m3150.png,3,3,train
re,349,349RE_s1c0x198728-1600y9652-1200m289.png,3,3,train
re,77,077RE_s0c0x180960-1600y109373-1200m8130.png,0,0,train
re,203,203RE_s1c0x137813-1600y139281-1200m8374.png,0,0,train
re,214,214RE_s2c0x163887-1600y32137-1200m865.png,3,3,train
re,534,534RE_s0c0x135409-1600y99667-1200m3621.png,1,0,train
re,490,490RE_s3c0x213505-1600y148606-1200m5455.png,3,0,train
re,520,520RE_s1c0x264922-1600y33201-1200m1716.png,2,1,train
re,477,477RE_s5c0x161369-1600y85172-1200m353.png,3,3,train
re,62,062RE_s1c0x208511-1600y61094-1200m5979.png,3,3,train
re,477,477RE_s5c0x162797-1600y86248-1200m380.png,3,3,train
re,859,859RE_s0c0x221068-1600y32166-1200m2606.png,3,2,train
re,304,304RE_s1c0x93433-1600y23595-1200m342.png,3,3,train
re,441,441RE_s3c0x184068-1600y103405-1200m1613.png,2,2,train
re,520,520RE_s2c0x112128-1600y19312-1200m785.png,1,1,train
re,203,203RE_s1c0x130707-1600y61084-1200m3304.png,0,0,train
re,668,668RE_s1c0x240712-1600y38606-1200m3037.png,3,3,train
re,273,273RE_s1c0x56096-1600y53540-1200m3094.png,3,3,train
re,625,625RE_s0c0x143755-1600y58968-1200m2497.png,3,0,train
re,331,331RE_s5c0x83290-1600y105602-1200m604.png,0,0,train
re,366,366RE_s0c0x163929-1600y90034-1200m4219.png,2,3,train
re,51,051RE_s1c0x225755-1600y131807-1200m5817.png,1,1,train
re,460,460RE_s0c0x154092-1600y57866-1200m2514.png,3,3,train
re,520,520RE_s2c0x154960-1600y27906-1200m1356.png,1,1,train
re,363,363RE_s1c0x151189-1600y88953-1200m3574.png,2,2,train
re,273,273RE_s1c0x51804-1600y71767-1200m4475.png,3,3,train
re,51,051RE_s1c0x164393-1600y32139-1200m964.png,1,1,train
re,273,273RE_s1c0x46097-1600y67489-1200m4152.png,3,3,train
re,499,499RE_s0c0x165578-1600y83607-1200m2235.png,1,2,train
re,349,349RE_s1c0x197305-1600y12879-1200m465.png,3,3,train
re,74,074RE_s0c0x73463-1600y16059-1200m313.png,3,3,train
re,477,477RE_s5c0x189923-1600y72327-1200m106.png,3,3,train
re,166,166RE_s1c0x192502-1600y50398-1200m1410.png,0,0,train
re,400,400RE_s0c0x240969-1600y10707-1200m330.png,2,3,train
re,22,022RE_s5c0x95001-1600y161819-1200m468.png,2,3,train
re,490,490RE_s3c0x102073-1600y135710-1200m4064.png,3,0,train
re,195,195RE_s1c0x60730-1600y49307-1200m1563.png,3,3,train
re,195,195RE_s1c0x92143-1600y73937-1200m3425.png,3,3,train
re,477,477RE_s5c0x125667-1600y96940-1200m641.png,3,3,train
re,864,864RE_s1c0x106190-1600y54647-1200m1383.png,0,0,train
re,695,695RE_s0c0x96092-1600y113622-1200m2796.png,3,3,train
re,53,053RE_s4c0x164018-1600y28984-1200m349.png,3,3,train
re,77,077RE_s1c0x283228-1600y26826-1200m1141.png,0,0,train
re,64,064RE_s0c0x77175-1600y68567-1200m3010.png,3,3,train
re,670,670RE_s3c0x175465-1600y69005-1200m146.png,3,3,train
re,182,182RE_s0c0x90346-1600y66412-1200m7827.png,1,0,train
re,218,218RE_s2c0x126802-1600y83637-1200m1654.png,3,3,train
re,400,400RE_s0c0x229515-1600y26765-1200m2024.png,2,3,train
re,101,101RE_s0c0x69207-1600y68578-1200m4271.png,3,3,train
re,195,195RE_s1c0x73605-1600y48221-1200m1498.png,3,3,train
re,695,695RE_s0c0x98953-1600y120033-1200m2867.png,3,3,train
re,53,053RE_s4c0x186894-1600y57906-1200m1152.png,3,3,train
re,77,077RE_s0c0x185249-1600y109372-1200m8133.png,0,0,train
re,865,865RE_s1c0x211017-1600y51444-1200m4451.png,3,3,train
re,20,020RE_s3c0x179811-1600y81664-1200m2328.png,0,0,train
re,859,859RE_s0c0x206805-1600y71816-1200m6702.png,3,2,train
re,470,470RE_s0c0x129642-1600y66442-1200m1118.png,2,3,train
re,95,095RE_s1c0x102041-1600y18196-1200m449.png,0,0,train
re,218,218RE_s2c0x162514-1600y17209-1200m103.png,3,3,train
re,58,058RE_s1c0x103394-1600y93822-1200m456.png,0,0,train
re,74,074RE_s0c0x102033-1600y9657-1200m157.png,3,3,train
re,695,695RE_s0c0x86068-1600y84666-1200m2094.png,3,3,train
re,400,400RE_s0c0x143840-1600y49231-1200m4563.png,2,3,train
re,480,480RE_s0c0x165586-1600y32144-1200m993.png,0,0,train
re,662,662RE_s1c0x152282-1600y75034-1200m3299.png,3,1,train
re,458,458RE_s0c0x232481-1600y83608-1200m7810.png,0,0,train
re,490,490RE_s3c0x93501-1600y124996-1200m2863.png,3,0,train
re,360,360RE_s0c0x171086-1600y66458-1200m1829.png,3,3,train
re,20,020RE_s7c0x130615-1600y116516-1200m552.png,0,0,train
re,638,638RE_s2c0x74742-1600y183267-1200m857.png,0,0,train
re,460,460RE_s0c0x118406-1600y56787-1200m2429.png,3,3,train
re,460,460RE_s0c0x184080-1600y10748-1200m330.png,3,3,train
re,178,178RE_s2c0x120675-1600y130658-1200m3477.png,0,0,train
re,349,349RE_s1c0x115856-1600y47143-1200m3514.png,3,3,train
re,588,588RE_s2c0x250148-1600y114828-1200m3853.png,3,3,train
re,662,662RE_s1c0x169432-1600y95375-1200m4596.png,1,1,train
re,693,693RE_s2c0x186933-1600y48284-1200m2244.png,2,2,train
re,859,859RE_s0c0x83944-1600y61095-1200m5538.png,3,2,train
re,441,441RE_s3c0x171184-1600y149503-1200m4047.png,3,2,train
re,458,458RE_s0c0x115363-1600y62159-1200m5856.png,0,0,train
re,470,470RE_s0c0x162502-1600y22523-1200m234.png,2,3,train
re,363,363RE_s1c0x158322-1600y53596-1200m1819.png,1,2,train
re,366,366RE_s0c0x156777-1600y69662-1200m2777.png,3,3,train
re,304,304RE_s1c0x74784-1600y118982-1200m2840.png,3,3,train
re,385,385RE_s1c0x85033-1600y26811-1200m1026.png,3,3,train
re,491,491RE_s1c0x152336-1600y81438-1200m2835.png,1,3,train
re,662,662RE_s1c0x135141-1600y52512-1200m2192.png,3,1,train
re,96,096RE_s2c0x167023-1600y132836-1200m8474.png,2,2,train
re,53,053RE_s4c0x151168-1600y18270-1200m103.png,3,3,train
re,214,214RE_s0c0x182813-1600y16157-1200m82.png,3,3,train
re,638,638RE_s1c0x159501-1600y80354-1200m9931.png,0,0,train
re,273,273RE_s1c0x63244-1600y69631-1200m4327.png,3,3,train
re,693,693RE_s2c0x186932-1600y96482-1200m5063.png,2,2,train
re,307,307RE_s0c0x170674-1600y45000-1200m3405.png,3,1,train
re,171,171RE_s0c0x179965-1600y26767-1200m1295.png,3,3,train
re,699,699RE_s1c0x209540-1600y49311-1200m1769.png,3,3,train
re,441,441RE_s3c0x201166-1600y104491-1200m1686.png,2,2,train
re,195,195RE_s1c0x159269-1600y52563-1200m1877.png,3,3,train
re,101,101RE_s0c0x70639-1600y67506-1200m4184.png,3,3,train
re,499,499RE_s0c0x138436-1600y64317-1200m1482.png,1,2,train
re,377,377RE_s1c0x144242-1600y32126-1200m1156.png,0,0,train
re,534,534RE_s0c0x136834-1600y98584-1200m3580.png,1,0,train
re,458,458RE_s0c0x189649-1600y88946-1200m8130.png,0,0,train
re,693,693RE_s2c0x179789-1600y49354-1200m2313.png,2,2,train
re,662,662RE_s1c0x125157-1600y62138-1200m2649.png,2,1,train
re,470,470RE_s0c0x135355-1600y73952-1200m1237.png,2,3,train
re,74,074RE_s0c0x104893-1600y6440-1200m83.png,3,3,train
re,490,490RE_s3c0x227778-1600y138980-1200m4494.png,2,0,train
re,588,588RE_s2c0x204473-1600y43020-1200m752.png,3,3,train
re,101,101RE_s0c0x64929-1600y86794-1200m5505.png,3,3,train
re,331,331RE_s5c0x87586-1600y97008-1200m376.png,0,0,train
re,865,865RE_s1c0x201019-1600y62142-1200m5510.png,3,3,train
re,379,379RE_s0c0x118456-1600y66405-1200m8146.png,3,3,train
re,331,331RE_s3c0x143465-1600y176786-1200m16108.png,0,0,train
re,331,331RE_s3c0x123588-1600y42780-1200m3024.png,0,0,train
re,224,224RE_s4c0x155476-1600y135444-1200m848.png,2,3,train
re,96,096RE_s2c0x149885-1600y148935-1200m9931.png,2,2,train
re,470,470RE_s0c0x158229-1600y14991-1200m140.png,2,3,train
re,864,864RE_s1c0x104774-1600y57878-1200m1477.png,0,0,train
re,490,490RE_s1c0x188813-1600y19248-1200m574.png,2,0,train
re,22,022RE_s5c0x90714-1600y157533-1200m300.png,2,3,train
re,203,203RE_s1c0x136381-1600y138210-1200m8312.png,0,0,train
re,385,385RE_s1c0x152154-1600y50408-1200m2552.png,3,3,train
re,20,020RE_s7c0x127763-1600y109014-1200m166.png,0,0,train
re,670,670RE_s3c0x175465-1600y73289-1200m202.png,3,3,train
re,899,899RE_s3c0x276006-1600y147508-1200m3297.png,3,2,train
re,470,470RE_s0c0x141080-1600y43925-1200m629.png,2,3,train
re,534,534RE_s0c0x123957-1600y94274-1200m3382.png,1,0,train
re,379,379RE_s0c0x289902-1600y21467-1200m2164.png,3,3,train
re,785,785RE_s4c0x182875-1600y76528-1200m593.png,0,0,train
re,638,638RE_s1c0x205186-1600y107188-1200m13631.png,0,0,train
re,95,095RE_s1c0x147733-1600y107144-1200m6634.png,0,0,train
re,490,490RE_s3c0x103498-1600y138946-1200m4412.png,3,0,train
re,74,074RE_s0c0x117711-1600y25744-1200m698.png,3,3,train
re,400,400RE_s0c0x210979-1600y11764-1200m418.png,2,3,train
re,380,380RE_s1c0x143982-1600y66409-1200m5345.png,0,0,train
re,899,899RE_s3c0x274584-1600y145372-1200m3165.png,3,2,train
re,335,335RE_s0c0x103676-1600y26784-1200m562.png,2,2,train
re,218,218RE_s2c0x129660-1600y82567-1200m1600.png,3,3,train
re,171,171RE_s0c0x192799-1600y29986-1200m1559.png,3,3,train
re,377,377RE_s1c0x144244-1600y31052-1200m1089.png,0,0,train
re,400,400RE_s0c0x205252-1600y11762-1200m414.png,2,3,train
re,214,214RE_s2c0x153901-1600y37480-1200m1115.png,3,3,train
re,95,095RE_s1c0x142032-1600y50351-1200m2524.png,0,0,train
re,865,865RE_s1c0x186701-1600y73907-1200m6507.png,3,3,train
re,859,859RE_s0c0x209647-1600y23603-1200m1695.png,3,2,train
re,379,379RE_s0c0x125613-1600y12824-1200m965.png,3,3,train
re,363,363RE_s1c0x141166-1600y81417-1200m3138.png,0,2,train
re,73,073RE_s1c0x70644-1600y93221-1200m3259.png,3,2,train
re,588,588RE_s2c0x204477-1600y41949-1200m708.png,3,3,train
re,195,195RE_s1c0x63609-1600y52525-1200m1810.png,3,3,train
re,331,331RE_s3c0x246345-1600y127504-1200m10611.png,0,0,train
re,490,490RE_s3c0x166386-1600y115378-1200m1842.png,3,0,train
re,785,785RE_s7c0x122145-1600y151060-1200m739.png,0,0,train
re,864,864RE_s1c0x76248-1600y76095-1200m1964.png,0,0,train
re,695,695RE_s0c0x91785-1600y88964-1200m2221.png,3,3,train
re,203,203RE_s1c0x130687-1600y138206-1200m8308.png,0,0,train
re,218,218RE_s2c0x121099-1600y108300-1200m3074.png,3,3,train
re,693,693RE_s2c0x184078-1600y41848-1200m1807.png,2,2,train
re,366,366RE_s0c0x172516-1600y84667-1200m3885.png,2,3,train
re,668,668RE_s1c0x162148-1600y129716-1200m12977.png,3,3,train
re,380,380RE_s1c0x229675-1600y37500-1200m2365.png,2,0,train
re,334,334RE_s0c0x142668-1600y109315-1200m4518.png,2,2,train
re,331,331RE_s3c0x110721-1600y27755-1200m1275.png,0,0,train
re,195,195RE_s1c0x162135-1600y55777-1200m2146.png,3,3,train
re,451,451RE_s1c0x174848-1600y102896-1200m13490.png,0,0,train
re,251,251RE_s0c0x100626-1600y35359-1200m505.png,3,3,train
re,448,448RE_s1c0x115058-1600y48218-1200m960.png,3,3,train
re,218,218RE_s2c0x118248-1600y85779-1200m1760.png,3,3,train
re,458,458RE_s0c0x158204-1600y88955-1200m8108.png,0,0,train
re,53,053RE_s4c0x185469-1600y50422-1200m908.png,2,3,train
re,470,470RE_s0c0x156805-1600y11773-1200m102.png,2,3,train
re,670,670RE_s3c0x166889-1600y62590-1200m45.png,3,3,train
re,203,203RE_s1c0x169247-1600y130738-1200m7867.png,0,0,train
re,366,366RE_s0c0x136809-1600y52522-1200m1439.png,2,3,train
re,451,451RE_s1c0x186276-1600y99688-1200m13042.png,0,0,train
re,380,380RE_s1c0x155398-1600y27832-1200m1415.png,2,0,train
re,457,457RE_s1c0x181473-1600y115716-1200m6007.png,3,3,train
re,638,638RE_s1c0x149476-1600y130714-1200m17046.png,0,0,train
re,182,182RE_s0c0x94621-1600y65335-1200m7703.png,1,0,train
re,441,441RE_s3c0x151208-1600y159133-1200m4365.png,2,2,train
re,182,182RE_s0c0x90337-1600y59972-1200m7061.png,1,0,train
re,171,171RE_s0c0x127090-1600y157514-1200m13473.png,3,3,train
re,864,864RE_s1c0x111950-1600y103951-1200m2686.png,0,0,train
re,51,051RE_s1c0x210014-1600y17151-1200m371.png,2,1,train
re,458,458RE_s0c0x211067-1600y40762-1200m3692.png,0,0,train
re,379,379RE_s0c0x137064-1600y22504-1200m2194.png,3,3,train
re,460,460RE_s0c0x181218-1600y111438-1200m5772.png,3,3,train
re,360,360RE_s0c0x159678-1600y73953-1200m2033.png,3,3,train
re,366,366RE_s0c0x151083-1600y83594-1200m3795.png,2,3,train
re,360,360RE_s0c0x152540-1600y77186-1200m2119.png,3,3,train
re,54,054RE_s0c0x159665-1600y71820-1200m2595.png,3,3,train
re,699,699RE_s1c0x218106-1600y91100-1200m5566.png,3,3,train
re,363,363RE_s1c0x164015-1600y75000-1200m2805.png,2,2,train
re,458,458RE_s0c0x148226-1600y85745-1200m7898.png,0,0,train
re,379,379RE_s0c0x131321-1600y82468-1200m10120.png,3,3,train
re,58,058RE_s2c0x195714-1600y109313-1200m5734.png,0,0,train
re,695,695RE_s0c0x93219-1600y94337-1200m2368.png,3,3,train
re,62,062RE_s1c0x165660-1600y63211-1200m6179.png,3,3,train
re,54,054RE_s0c0x169663-1600y70754-1200m2557.png,3,3,train
re,385,385RE_s1c0x110747-1600y12886-1200m192.png,3,3,train
re,24,024RE_s3c0x145336-1600y146510-1200m1388.png,1,1,train
re,49,049RE_s1c0x100986-1600y26764-1200m1115.png,0,0,train
re,668,668RE_s1c0x173562-1600y129720-1200m12985.png,3,3,train
re,458,458RE_s0c0x232479-1600y82539-1200m7732.png,0,0,train
re,335,335RE_s0c0x99402-1600y25716-1200m498.png,2,2,train
re,899,899RE_s1c0x276139-1600y63228-1200m2367.png,3,2,train
re,366,366RE_s0c0x153929-1600y85736-1200m3945.png,2,3,train
re,49,049RE_s1c0x82434-1600y32112-1200m1491.png,0,0,train
re,360,360RE_s0c0x153967-1600y77186-1200m2120.png,3,3,train
re,251,251RE_s0c0x89240-1600y65361-1200m1510.png,3,3,train
re,457,457RE_s1c0x210059-1600y99668-1200m4836.png,3,3,train
re,366,366RE_s0c0x149657-1600y65373-1200m2434.png,2,3,train
re,380,380RE_s1c0x136822-1600y50347-1200m3640.png,0,0,train
re,457,457RE_s1c0x202925-1600y108227-1200m5463.png,3,3,train
re,273,273RE_s1c0x74683-1600y62151-1200m3763.png,3,3,train
re,385,385RE_s1c0x119313-1600y23596-1200m814.png,3,3,train
re,74,074RE_s0c0x104892-1600y5372-1200m63.png,3,3,train
re,441,441RE_s2c0x82380-1600y108941-1200m832.png,3,2,train
re,480,480RE_s2c0x86518-1600y66670-1200m953.png,0,0,train
re,53,053RE_s4c0x201138-1600y65425-1200m1503.png,3,3,train
re,379,379RE_s0c0x275622-1600y33223-1200m3751.png,3,3,train
re,74,074RE_s2c0x111749-1600y85098-1200m975.png,3,3,train
re,460,460RE_s0c0x126960-1600y39644-1200m1611.png,3,3,train
re,385,385RE_s1c0x112180-1600y16090-1200m336.png,3,3,train
re,490,490RE_s3c0x169245-1600y144324-1200m5011.png,3,0,train
re,695,695RE_s0c0x90364-1600y96479-1200m2416.png,3,3,train
re,491,491RE_s1c0x166656-1600y40738-1200m1524.png,1,3,train
re,380,380RE_s1c0x199676-1600y21429-1200m939.png,0,0,train
re,218,218RE_s2c0x125372-1600y81494-1200m1541.png,3,3,train
re,335,335RE_s0c0x147934-1600y58949-1200m2573.png,2,2,train
re,400,400RE_s0c0x208119-1600y14969-1200m756.png,2,3,train
re,693,693RE_s4c0x99216-1600y126222-1200m314.png,2,2,train
re,171,171RE_s0c0x192800-1600y42828-1200m2798.png,3,3,train
re,670,670RE_s3c0x171177-1600y66864-1200m109.png,3,3,train
re,385,385RE_s1c0x119308-1600y21450-1200m666.png,3,3,train
re,73,073RE_s1c0x137755-1600y106108-1200m4196.png,2,2,train
re,662,662RE_s1c0x133712-1600y48220-1200m2020.png,3,1,train
re,451,451RE_s1c0x174848-1600y45022-1200m5286.png,0,0,train
re,380,380RE_s1c0x138254-1600y51415-1200m3750.png,3,0,train
re,864,864RE_s1c0x103348-1600y55724-1200m1412.png,0,0,train
re,470,470RE_s0c0x158232-1600y8560-1200m65.png,2,3,train
re,377,377RE_s1c0x145674-1600y27844-1200m884.png,0,0,train
re,520,520RE_s2c0x163512-1600y56846-1200m3080.png,2,1,train
re,74,074RE_s0c0x97733-1600y5372-1200m58.png,3,3,train
re,477,477RE_s5c0x172776-1600y79814-1200m245.png,3,3,train
re,171,171RE_s0c0x217102-1600y155384-1200m13343.png,3,3,train
re,22,022RE_s5c0x114972-1600y158606-1200m357.png,3,3,train
re,534,534RE_s0c0x131110-1600y95351-1200m3438.png,1,0,train
re,218,218RE_s2c0x126800-1600y79358-1200m1432.png,3,3,train
re,477,477RE_s5c0x189920-1600y75542-1200m159.png,3,3,train
re,707,707RE_s1c0x180786-1600y45066-1200m1800.png,2,3,train
re,451,451RE_s1c0x169145-1600y106105-1200m13937.png,0,0,train
re,168,168RE_s3c0x149688-1600y106022-1200m3667.png,3,3,train
re,251,251RE_s0c0x87814-1600y64292-1200m1470.png,3,3,train
re,865,865RE_s1c0x198153-1600y99643-1200m8592.png,3,3,train
re,899,899RE_s3c0x274586-1600y128238-1200m2076.png,3,2,train
re,695,695RE_s0c0x86070-1600y80390-1200m1963.png,3,3,train
re,360,360RE_s0c0x166793-1600y48262-1200m1251.png,3,3,train
re,64,064RE_s0c0x37165-1600y67485-1200m2917.png,3,3,train
re,448,448RE_s1c0x116493-1600y49287-1200m1005.png,3,3,train
re,379,379RE_s0c0x147048-1600y83542-1200m10247.png,3,3,train
re,491,491RE_s1c0x108056-1600y18201-1200m409.png,1,3,train
re,785,785RE_s0c0x208847-1600y35358-1200m2083.png,0,0,train
re,499,499RE_s0c0x159859-1600y79317-1200m2078.png,1,2,train
re,24,024RE_s3c0x158199-1600y122952-1200m623.png,1,1,train
re,638,638RE_s2c0x76170-1600y204686-1200m1505.png,0,0,train
re,251,251RE_s0c0x127704-1600y66439-1200m1573.png,3,3,train
re,22,022RE_s5c0x79263-1600y165028-1200m579.png,2,3,train
re,168,168RE_s3c0x102558-1600y87778-1200m2882.png,3,3,train
re,171,171RE_s0c0x204241-1600y38555-1200m2384.png,3,3,train
re,707,707RE_s1c0x182218-1600y47206-1200m1959.png,3,3,train
re,51,051RE_s1c0x230052-1600y126460-1200m5588.png,2,1,train
re,480,480RE_s2c0x95126-1600y43092-1200m211.png,0,0,train
re,307,307RE_s0c0x173530-1600y125406-1200m9060.png,3,1,train
re,875,875RE_s0c0x135231-1600y61072-1200m2594.png,3,2,train
re,625,625RE_s0c0x133772-1600y71812-1200m3125.png,3,0,train
re,307,307RE_s0c0x179237-1600y21462-1200m1304.png,3,1,train
re,214,214RE_s2c0x183879-1600y47134-1200m1635.png,3,3,train
re,490,490RE_s3c0x96365-1600y134634-1200m3943.png,3,0,train
re,95,095RE_s1c0x143457-1600y89984-1200m5167.png,0,0,train
re,470,470RE_s0c0x131068-1600y60029-1200m995.png,2,3,train
re,460,460RE_s0c0x192661-1600y99652-1200m5126.png,3,3,train
re,668,668RE_s1c0x162150-1600y128642-1200m12877.png,3,3,train
re,73,073RE_s1c0x64952-1600y85749-1200m2817.png,3,2,train
re,195,195RE_s1c0x69333-1600y46069-1200m1353.png,3,3,train
re,304,304RE_s1c0x97623-1600y66462-1200m1446.png,3,3,train
re,441,441RE_s3c0x166888-1600y116278-1200m2331.png,2,2,train
re,499,499RE_s1c0x250428-1600y15051-1200m100.png,1,2,train
re,20,020RE_s7c0x136325-1600y107945-1200m137.png,0,0,train
re,638,638RE_s1c0x218028-1600y139342-1200m18211.png,0,0,train
re,273,273RE_s1c0x61816-1600y62146-1200m3754.png,3,3,train
re,670,670RE_s3c0x174033-1600y70073-1200m161.png,3,3,train
re,251,251RE_s0c0x123426-1600y76077-1200m1898.png,3,3,train
re,349,349RE_s1c0x181583-1600y5356-1200m104.png,3,3,train
re,457,457RE_s1c0x181471-1600y114648-1200m5930.png,3,3,train
re,875,875RE_s0c0x122357-1600y90020-1200m4232.png,3,2,train
re,457,457RE_s1c0x187197-1600y87838-1200m3917.png,3,3,train
re,899,899RE_s1c0x280413-1600y63227-1200m2370.png,3,2,train
re,363,363RE_s1c0x175453-1600y33232-1200m750.png,2,2,train
re,477,477RE_s5c0x119937-1600y98006-1200m675.png,3,3,train
re,444,444RE_s1c0x202075-1600y53599-1200m3025.png,3,3,train
re,638,638RE_s2c0x87624-1600y195064-1200m1253.png,0,0,train
re,58,058RE_s2c0x131472-1600y66451-1200m2980.png,0,0,train
re,470,470RE_s0c0x126790-1600y73947-1200m1231.png,2,3,train
re,631,631RE_s0c0x158129-1600y129691-1200m6447.png,0,3,train
re,214,214RE_s2c0x116735-1600y27836-1200m630.png,3,3,train
re,273,273RE_s1c0x77530-1600y71773-1200m4493.png,3,3,train
re,490,490RE_s3c0x199224-1600y132514-1200m3777.png,3,0,train
re,49,049RE_s1c0x102416-1600y39608-1200m2010.png,0,0,train
re,273,273RE_s1c0x58956-1600y49262-1200m2767.png,3,3,train
re,218,218RE_s2c0x129659-1600y77224-1200m1325.png,3,3,train
re,62,062RE_s1c0x188540-1600y99636-1200m10097.png,3,3,train
re,171,171RE_s0c0x209959-1600y33214-1200m1867.png,3,3,train
re,631,631RE_s0c0x152401-1600y117885-1200m5864.png,1,3,train
re,693,693RE_s2c0x189787-1600y47212-1200m2173.png,2,2,train
re,588,588RE_s2c0x205896-1600y41947-1200m709.png,3,3,train
re,182,182RE_s0c0x87467-1600y40700-1200m4747.png,1,0,train
re,695,695RE_s0c0x93246-1600y45023-1200m1049.png,3,3,train
re,20,020RE_s3c0x181246-1600y85964-1200m2542.png,0,0,train
re,638,638RE_s1c0x109466-1600y102855-1200m12927.png,0,0,train
re,670,670RE_s3c0x169742-1600y69003-1200m142.png,3,3,train
re,304,304RE_s1c0x93433-1600y15022-1200m189.png,3,3,train
re,491,491RE_s1c0x140930-1600y4297-1200m43.png,1,3,train
re,331,331RE_s3c0x253451-1600y84641-1200m7262.png,0,0,train
re,101,101RE_s0c0x69205-1600y69652-1200m4357.png,3,3,train
re,864,864RE_s1c0x103350-1600y56802-1200m1444.png,0,0,train
re,363,363RE_s1c0x149762-1600y69653-1200m2533.png,2,2,train
re,588,588RE_s2c0x227294-1600y119106-1200m4002.png,3,3,train
re,64,064RE_s0c0x51486-1600y36442-1200m1016.png,3,3,train
re,520,520RE_s2c0x154958-1600y26836-1200m1295.png,1,1,train
re,400,400RE_s0c0x213827-1600y14972-1200m760.png,2,3,train
re,865,865RE_s1c0x89601-1600y25688-1200m1821.png,3,3,train
re,899,899RE_s3c0x278857-1600y130377-1200m2219.png,3,2,train
re,307,307RE_s0c0x192120-1600y22538-1200m1405.png,3,1,train
re,363,363RE_s1c0x155470-1600y84652-1200m3334.png,2,2,train
re,377,377RE_s1c0x148497-1600y139326-1200m9798.png,0,0,train
re,638,638RE_s1c0x250877-1600y170411-1200m21856.png,0,0,train
re,865,865RE_s1c0x75287-1600y37454-1200m2961.png,3,3,train
re,360,360RE_s0c0x161100-1600y67525-1200m1850.png,3,3,train
re,385,385RE_s1c0x117877-1600y11820-1200m159.png,3,3,train
re,693,693RE_s2c0x159770-1600y118991-1200m5805.png,2,2,train
re,95,095RE_s1c0x146311-1600y93188-1200m5391.png,0,0,train
re,662,662RE_s1c0x136565-1600y51436-1200m2151.png,3,1,train
re,251,251RE_s0c0x100626-1600y37505-1200m575.png,3,3,train
re,864,864RE_s1c0x76247-1600y75021-1200m1935.png,0,0,train
re,662,662RE_s1c0x139418-1600y55712-1200m2332.png,3,1,train
re,355,355RE_s0c0x66687-1600y59976-1200m1773.png,3,3,train
re,273,273RE_s1c0x53236-1600y67491-1200m4157.png,3,3,train
re,588,588RE_s2c0x240177-1600y81601-1200m2337.png,3,3,train
re,441,441RE_s2c0x83804-1600y142155-1200m2365.png,2,2,train
re,349,349RE_s1c0x100124-1600y43918-1200m3131.png,3,3,train
re,49,049RE_s1c0x88126-1600y23555-1200m866.png,0,0,train
re,96,096RE_s2c0x151321-1600y147867-1200m9829.png,1,2,train
re,451,451RE_s1c0x226284-1600y60056-1200m7431.png,0,0,train
re,451,451RE_s1c0x174846-1600y51438-1200m6179.png,0,0,train
re,380,380RE_s1c0x231099-1600y38579-1200m2475.png,2,0,train
re,355,355RE_s0c0x65262-1600y58906-1200m1737.png,3,3,train
re,51,051RE_s1c0x227188-1600y127531-1200m5633.png,2,1,train
re,62,062RE_s1c0x161379-1600y60002-1200m5831.png,3,3,train
re,480,480RE_s2c0x95128-1600y46296-1200m298.png,0,0,train
re,458,458RE_s0c0x111083-1600y57879-1200m5423.png,0,0,train
re,62,062RE_s1c0x205651-1600y67502-1200m6664.png,3,3,train
re,859,859RE_s0c0x221063-1600y58980-1200m5411.png,3,2,train
re,334,334RE_s0c0x98394-1600y66453-1200m1908.png,3,2,train
re,451,451RE_s1c0x162022-1600y62180-1200m7693.png,0,0,train
re,668,668RE_s1c0x157873-1600y129714-1200m12974.png,3,3,train
re,477,477RE_s5c0x152790-1600y90543-1200m468.png,3,3,train
re,491,491RE_s1c0x135232-1600y3229-1200m26.png,1,3,train
re,400,400RE_s0c0x235234-1600y22469-1200m1585.png,2,3,train
re,699,699RE_s1c0x206665-1600y101843-1200m6257.png,3,3,train
re,444,444RE_s1c0x206409-1600y48258-1200m2518.png,3,3,train
re,203,203RE_s1c0x122128-1600y73933-1200m4113.png,0,0,train
re,49,049RE_s1c0x98130-1600y41745-1200m2137.png,0,0,train
re,168,168RE_s3c0x148256-1600y106022-1200m3666.png,3,3,train
re,470,470RE_s0c0x162500-1600y47141-1200m721.png,2,3,train
re,95,095RE_s1c0x119156-1600y44993-1200m2087.png,0,0,train
re,899,899RE_s3c0x271735-1600y126095-1200m1934.png,3,2,train
re,400,400RE_s0c0x216676-1600y11764-1200m422.png,2,3,train
re,273,273RE_s1c0x73255-1600y76061-1200m4800.png,3,3,train
re,499,499RE_s0c0x145588-1600y100754-1200m2708.png,1,2,train
re,304,304RE_s1c0x99052-1600y65389-1200m1417.png,3,3,train
re,20,020RE_s7c0x123485-1600y111150-1200m243.png,0,0,train
re,307,307RE_s0c0x166403-1600y123246-1200m8925.png,3,1,train
re,785,785RE_s0c0x188823-1600y20363-1200m766.png,0,0,train
re,899,899RE_s3c0x276006-1600y145372-1200m3166.png,3,2,train
re,785,785RE_s4c0x189998-1600y79750-1200m712.png,0,0,train
re,470,470RE_s0c0x158228-1600y12842-1200m116.png,2,3,train
re,460,460RE_s0c0x115540-1600y61072-1200m2669.png,3,3,train
re,899,899RE_s3c0x277434-1600y146440-1200m3233.png,3,2,train
re,875,875RE_s0c0x120933-1600y55714-1200m2397.png,3,2,train
re,54,054RE_s0c0x171093-1600y83644-1200m3147.png,3,3,train
re,518,518RE_s0c0x126662-1600y83568-1200m5345.png,0,0,train
re,520,520RE_s2c0x153528-1600y33254-1200m1690.png,1,1,train
re,96,096RE_s2c0x165601-1600y130692-1200m8277.png,2,2,train
re,54,054RE_s0c0x176789-1600y68612-1200m2478.png,3,3,train
re,355,355RE_s0c0x69536-1600y51416-1200m1480.png,3,3,train
re,195,195RE_s1c0x66470-1600y54667-1200m1988.png,3,3,train
re,520,520RE_s2c0x157804-1600y24694-1200m1170.png,1,1,train
re,448,448RE_s1c0x117922-1600y57845-1200m1357.png,3,3,train
re,203,203RE_s1c0x137820-1600y77163-1200m4330.png,0,0,train
re,251,251RE_s0c0x82084-1600y71773-1200m1736.png,3,3,train
re,363,363RE_s1c0x134012-1600y67504-1200m2425.png,2,2,train
re,400,400RE_s0c0x216677-1600y18176-1200m1116.png,2,3,train
re,224,224RE_s1c0x168397-1600y21564-1200m110.png,0,3,train
re,166,166RE_s3c0x91849-1600y64614-1200m205.png,0,0,train
re,355,355RE_s0c0x78098-1600y84638-1200m2391.png,3,3,train
re,480,480RE_s2c0x95126-1600y44160-1200m240.png,0,0,train
re,864,864RE_s1c0x110477-1600y39658-1200m932.png,0,0,train
re,662,662RE_s1c0x140841-1600y54644-1200m2286.png,3,1,train
re,785,785RE_s0c0x210277-1600y37510-1200m2304.png,0,0,train
re,20,020RE_s7c0x132039-1600y117590-1200m627.png,0,0,train
re,400,400RE_s0c0x208118-1600y10692-1200m307.png,2,3,train
re,64,064RE_s0c0x88622-1600y47119-1200m1720.png,3,3,train
re,460,460RE_s0c0x156950-1600y50368-1200m2148.png,3,3,train
re,62,062RE_s1c0x164233-1600y63210-1200m6178.png,3,3,train
re,699,699RE_s1c0x219535-1600y55724-1200m2366.png,3,3,train
re,499,499RE_s0c0x164141-1600y84677-1200m2271.png,1,2,train
re,385,385RE_s1c0x116451-1600y12886-1200m196.png,3,3,train
re,49,049RE_s1c0x102421-1600y27836-1200m1195.png,0,0,train
re,588,588RE_s2c0x227293-1600y108372-1200m3584.png,3,3,train
re,638,638RE_s1c0x148052-1600y62112-1200m7279.png,0,0,train
re,470,470RE_s0c0x159655-1600y8561-1200m66.png,2,3,train
re,699,699RE_s1c0x212400-1600y50382-1200m1862.png,3,3,train
re,499,499RE_s1c0x249002-1600y15050-1200m99.png,1,2,train
re,400,400RE_s0c0x212399-1600y14972-1200m759.png,2,3,train
re,865,865RE_s1c0x212437-1600y50377-1200m4342.png,3,3,train
re,331,331RE_s3c0x202053-1600y186446-1200m17044.png,0,0,train
re,588,588RE_s2c0x262992-1600y90152-1200m2775.png,3,3,train
re,785,785RE_s4c0x215746-1600y76539-1200m616.png,0,0,train
re,304,304RE_s1c0x67643-1600y129716-1200m2976.png,3,3,train
re,859,859RE_s0c0x203951-1600y73962-1200m6902.png,3,2,train
re,54,054RE_s0c0x173939-1600y102914-1200m4085.png,3,3,train
re,307,307RE_s0c0x197829-1600y105048-1200m7534.png,3,1,train
re,20,020RE_s3c0x214087-1600y67724-1200m1528.png,0,0,train
re,477,477RE_s5c0x119935-1600y96938-1200m637.png,3,3,train
re,631,631RE_s0c0x160996-1600y136106-1200m6816.png,1,3,train
re,520,520RE_s2c0x112122-1600y22536-1200m1001.png,1,1,train
re,534,534RE_s0c0x131112-1600y97501-1200m3532.png,1,0,train
re,49,049RE_s1c0x88128-1600y33186-1200m1570.png,0,0,train
re,385,385RE_s1c0x120729-1600y18236-1200m463.png,3,3,train
re,480,480RE_s2c0x86518-1600y67738-1200m998.png,0,0,train
re,171,171RE_s0c0x178543-1600y39612-1200m2469.png,3,3,train
re,20,020RE_s7c0x179151-1600y126194-1200m1289.png,0,0,train
re,875,875RE_s0c0x129509-1600y56786-1200m2438.png,3,2,train
re,360,360RE_s0c0x155400-1600y48258-1200m1243.png,3,3,train
re,377,377RE_s1c0x111346-1600y137183-1200m9633.png,0,0,train
re,458,458RE_s0c0x189649-1600y92165-1200m8313.png,0,0,train
re,470,470RE_s0c0x125366-1600y75019-1200m1243.png,2,3,train
re,444,444RE_s1c0x223527-1600y84676-1200m5223.png,3,3,train
re,64,064RE_s0c0x54337-1600y45017-1200m1541.png,3,3,train
re,73,073RE_s1c0x140606-1600y105040-1200m4133.png,2,2,train
re,273,273RE_s1c0x86091-1600y64297-1200m3932.png,3,3,train
re,64,064RE_s0c0x67155-1600y69635-1200m3067.png,3,3,train
re,74,074RE_s0c0x73453-1600y32156-1200m936.png,3,3,train
re,448,448RE_s1c0x117923-1600y55703-1200m1271.png,3,3,train
re,400,400RE_s0c0x180975-1600y16032-1200m856.png,2,3,train
re,385,385RE_s1c0x100759-1600y47194-1200m2341.png,3,3,train
re,707,707RE_s1c0x116448-1600y57924-1200m3048.png,3,3,train
re,53,053RE_s4c0x171170-1600y30066-1200m381.png,3,3,train
re,62,062RE_s1c0x182823-1600y117878-1200m12186.png,3,3,train
re,95,095RE_s1c0x142030-1600y48208-1200m2350.png,0,0,train
re,458,458RE_s0c0x175341-1600y93239-1200m8358.png,0,0,train
re,864,864RE_s1c0x77679-1600y72874-1200m1876.png,0,0,train
re,460,460RE_s0c0x158380-1600y136066-1200m6937.png,3,3,train
re,470,470RE_s0c0x133928-1600y54661-1200m876.png,2,3,train
re,77,077RE_s1c0x284656-1600y26827-1200m1142.png,0,0,train
re,693,693RE_s2c0x159770-1600y124337-1200m5894.png,2,2,train
re,273,273RE_s1c0x88948-1600y78215-1200m4962.png,3,3,train
re,363,363RE_s1c0x171156-1600y48225-1200m1513.png,2,2,train
re,638,638RE_s2c0x76170-1600y203614-1200m1481.png,0,0,train
re,168,168RE_s3c0x146831-1600y107097-1200m3691.png,3,3,train
re,477,477RE_s5c0x157076-1600y87321-1200m401.png,3,3,train
re,707,707RE_s1c0x180789-1600y42931-1200m1665.png,2,3,train
re,168,168RE_s3c0x129708-1600y98487-1200m3407.png,3,3,train
re,785,785RE_s0c0x156219-1600y46041-1200m3167.png,0,0,train
re,785,785RE_s0c0x154791-1600y48177-1200m3370.png,0,0,train
re,695,695RE_s0c0x91791-1600y103961-1200m2606.png,3,3,train
re,331,331RE_s3c0x203485-1600y141436-1200m12190.png,0,0,train
re,203,203RE_s1c0x156430-1600y75020-1200m4205.png,0,0,train
re,178,178RE_s2c0x152106-1600y51412-1200m899.png,0,0,train
re,195,195RE_s1c0x80728-1600y61086-1200m2554.png,3,3,train
re,875,875RE_s0c0x133796-1600y61071-1200m2593.png,3,2,train
re,457,457RE_s1c0x180058-1600y55706-1200m1318.png,3,3,train
re,20,020RE_s7c0x142053-1600y118674-1200m714.png,0,0,train
re,520,520RE_s2c0x124954-1600y16083-1200m584.png,1,1,train
re,518,518RE_s0c0x136686-1600y94310-1200m5994.png,0,0,train
re,460,460RE_s0c0x156953-1600y54651-1200m2348.png,3,3,train
re,491,491RE_s1c0x150896-1600y80368-1200m2809.png,1,3,train
re,470,470RE_s0c0x159653-1600y11774-1200m104.png,2,3,train
re,785,785RE_s4c0x204315-1600y72224-1200m450.png,0,0,train
re,477,477RE_s5c0x125667-1600y99079-1200m716.png,3,3,train
re,699,699RE_s1c0x205238-1600y117908-1200m6859.png,3,3,train
re,864,864RE_s1c0x100550-1600y76100-1200m1981.png,0,0,train
re,699,699RE_s1c0x199513-1600y60010-1200m2739.png,2,3,train
re,480,480RE_s2c0x93688-1600y43092-1200m210.png,0,0,train
re,62,062RE_s1c0x188538-1600y98568-1200m9978.png,3,3,train
re,477,477RE_s5c0x191349-1600y74474-1200m141.png,3,3,train
re,668,668RE_s1c0x170700-1600y132928-1200m13267.png,3,3,train
re,448,448RE_s1c0x133643-1600y68575-1200m1856.png,3,3,train
re,195,195RE_s1c0x73606-1600y51453-1200m1732.png,3,3,train
re,218,218RE_s2c0x122523-1600y79357-1200m1429.png,3,3,train
re,363,363RE_s1c0x154040-1600y86810-1200m3455.png,2,2,train
re,444,444RE_s1c0x183483-1600y68612-1200m4206.png,3,3,train
re,56,056RE_s2c0x270519-1600y122158-1200m6757.png,0,0,train
re,695,695RE_s0c0x91788-1600y83599-1200m2066.png,3,3,train
re,58,058RE_s2c0x217152-1600y61120-1200m2642.png,0,0,train
re,20,020RE_s7c0x134891-1600y109014-1200m171.png,0,0,train
re,51,051RE_s1c0x230052-1600y127530-1200m5635.png,2,1,train
re,58,058RE_s1c0x81956-1600y118466-1200m1767.png,1,0,train
re,631,631RE_s0c0x171032-1600y144577-1200m7324.png,1,3,train
re,22,022RE_s2c0x119186-1600y110747-1200m936.png,3,3,train
re,363,363RE_s1c0x122606-1600y41758-1200m1117.png,2,2,train
re,385,385RE_s1c0x113597-1600y13952-1200m235.png,3,3,train
re,699,699RE_s1c0x119510-1600y55705-1200m2296.png,3,3,train
re,203,203RE_s1c0x136400-1600y77163-1200m4329.png,0,0,train
re,195,195RE_s1c0x59293-1600y46074-1200m1346.png,3,3,train
re,457,457RE_s1c0x217193-1600y85706-1200m3766.png,3,3,train
re,64,064RE_s0c0x77174-1600y67492-1200m2945.png,3,3,train
re,96,096RE_s2c0x169877-1600y141448-1200m9256.png,2,2,train
re,707,707RE_s1c0x113585-1600y60066-1200m3304.png,3,3,train
re,499,499RE_s0c0x141298-1600y91088-1200m2465.png,1,2,train
re,335,335RE_s0c0x143656-1600y57878-1200m2517.png,2,2,train
re,331,331RE_s3c0x187741-1600y157493-1200m13987.png,0,0,train
re,203,203RE_s1c0x144972-1600y70713-1200m3926.png,0,0,train
re,638,638RE_s1c0x95197-1600y124284-1200m16096.png,0,0,train
re,101,101RE_s0c0x104885-1600y31072-1200m1043.png,1,3,train
re,662,662RE_s1c0x172273-1600y77172-1200m3436.png,1,1,train
re,699,699RE_s1c0x219528-1600y90032-1200m5493.png,3,3,train
re,444,444RE_s1c0x223518-1600y92164-1200m5649.png,3,3,train
re,331,331RE_s3c0x152016-1600y177871-1200m16207.png,0,0,train
re,20,020RE_s7c0x190592-1600y141186-1200m2263.png,0,0,train
re,366,366RE_s0c0x145379-1600y62164-1200m2180.png,2,3,train
re,662,662RE_s3c0x147679-1600y130474-1200m988.png,1,1,train
re,899,899RE_s1c0x278980-1600y62157-1200m2317.png,3,2,train
re,178,178RE_s2c0x119250-1600y128523-1200m3432.png,0,0,train
re,865,865RE_s1c0x136745-1600y7480-1200m365.png,3,3,train
re,864,864RE_s1c0x100496-1600y51426-1200m1283.png,0,0,train
re,864,864RE_s1c0x77679-1600y76096-1200m1965.png,0,0,train
re,490,490RE_s3c0x106349-1600y138948-1200m4414.png,3,0,train
re,859,859RE_s0c0x166811-1600y82562-1200m7627.png,3,2,train
re,670,670RE_s3c0x172604-1600y62589-1200m49.png,3,3,train
re,480,480RE_s2c0x87944-1600y66672-1200m954.png,0,0,train
re,625,625RE_s0c0x135196-1600y71812-1200m3126.png,3,0,train
re,588,588RE_s2c0x220152-1600y94448-1200m2967.png,3,3,train
re,355,355RE_s0c0x105230-1600y58911-1200m1762.png,3,3,train
re,380,380RE_s1c0x158246-1600y29969-1200m1599.png,2,0,train
re,534,534RE_s0c0x131109-1600y94278-1200m3387.png,1,0,train
re,96,096RE_s2c0x235582-1600y72873-1200m3286.png,2,2,train
re,520,520RE_s2c0x153530-1600y27907-1200m1355.png,1,1,train
re,451,451RE_s1c0x164873-1600y107181-1200m14084.png,0,0,train
re,307,307RE_s0c0x139229-1600y114680-1200m8242.png,3,1,train
re,363,363RE_s1c0x164013-1600y80353-1200m3093.png,2,2,train
re,182,182RE_s0c0x200328-1600y49304-1200m5873.png,0,0,train
re,444,444RE_s1c0x199207-1600y52528-1200m2923.png,3,3,train
re,95,095RE_s1c0x149157-1600y106076-1200m6537.png,0,0,train
re,20,020RE_s7c0x132038-1600y110082-1200m205.png,0,0,train
re,101,101RE_s0c0x120567-1600y55716-1200m3190.png,1,3,train
re,385,385RE_s1c0x110745-1600y60038-1200m3009.png,3,3,train
re,62,062RE_s1c0x202794-1600y63228-1200m6205.png,3,3,train
re,53,053RE_s4c0x156887-1600y43986-1200m724.png,3,3,train
re,168,168RE_s3c0x164035-1600y66372-1200m1806.png,3,3,train
re,171,171RE_s0c0x229926-1600y150002-1200m12853.png,3,3,train
re,668,668RE_s1c0x167843-1600y133997-1200m13347.png,3,3,train
re,53,053RE_s4c0x131155-1600y82560-1200m2412.png,3,3,train
re,335,335RE_s0c0x139382-1600y55732-1200m2404.png,2,2,train
re,304,304RE_s1c0x82003-1600y34316-1200m592.png,3,3,train
re,638,638RE_s1c0x188060-1600y125386-1200m16318.png,0,0,train
re,335,335RE_s0c0x139380-1600y57874-1200m2514.png,2,2,train
re,51,051RE_s1c0x214292-1600y11764-1200m218.png,2,1,train
re,51,051RE_s1c0x195784-1600y136091-1200m5966.png,1,1,train
re,400,400RE_s0c0x225225-1600y25682-1200m1910.png,2,3,train
re,54,054RE_s0c0x176787-1600y70754-1200m2562.png,3,3,train
re,214,214RE_s2c0x161036-1600y28919-1200m713.png,3,3,train
re,171,171RE_s0c0x107121-1600y87858-1200m7050.png,3,3,train
re,668,668RE_s1c0x105024-1600y14995-1200m511.png,3,3,train
re,864,864RE_s1c0x101954-1600y69650-1200m1809.png,0,0,train
re,171,171RE_s0c0x92816-1600y142490-1200m12087.png,3,3,train
re,307,307RE_s0c0x180667-1600y19317-1200m1121.png,3,1,train
re,58,058RE_s1c0x83385-1600y116327-1200m1638.png,0,0,train
re,355,355RE_s0c0x103806-1600y59980-1200m1796.png,3,3,train
re,273,273RE_s1c0x53236-1600y61073-1200m3668.png,3,3,train
re,224,224RE_s5c0x119201-1600y159703-1200m282.png,2,3,train
re,168,168RE_s3c0x146832-1600y83508-1200m2681.png,3,3,train
re,670,670RE_s3c0x171172-1600y77601-1200m289.png,3,3,train
re,899,899RE_s3c0x220283-1600y104628-1200m611.png,3,2,train
re,331,331RE_s3c0x144885-1600y184297-1200m16814.png,0,0,train
re,699,699RE_s1c0x135254-1600y11777-1200m121.png,3,3,train
re,355,355RE_s0c0x65260-1600y59976-1200m1772.png,3,3,train
re,171,171RE_s0c0x191373-1600y154299-1200m13226.png,3,3,train
re,203,203RE_s1c0x109227-1600y150016-1200m8858.png,0,0,train
re,331,331RE_s3c0x267743-1600y49272-1200m3905.png,0,0,train
re,355,355RE_s0c0x82398-1600y21405-1200m414.png,3,3,train
re,214,214RE_s2c0x138150-1600y17142-1200m217.png,3,3,train
re,668,668RE_s1c0x169272-1600y133997-1200m13348.png,3,3,train
re,214,214RE_s2c0x148167-1600y36413-1200m1059.png,3,3,train
re,859,859RE_s0c0x205379-1600y19310-1200m1256.png,3,2,train
re,166,166RE_s1c0x169598-1600y37526-1200m966.png,0,0,train
re,20,020RE_s7c0x139184-1600y119752-1200m794.png,0,0,train
re,385,385RE_s1c0x105054-1600y13956-1200m229.png,3,3,train
re,448,448RE_s1c0x165063-1600y87846-1200m2485.png,3,3,train
re,218,218RE_s2c0x119674-1600y85780-1200m1761.png,3,3,train
re,251,251RE_s0c0x103475-1600y32151-1200m408.png,3,3,train
re,379,379RE_s0c0x151324-1600y89989-1200m10852.png,3,3,train
re,334,334RE_s0c0x144094-1600y106100-1200m4384.png,2,2,train
re,203,203RE_s1c0x156430-1600y73940-1200m4137.png,0,0,train
re,470,470RE_s0c0x141075-1600y60027-1200m1002.png,2,3,train
re,377,377RE_s1c0x145674-1600y28912-1200m953.png,0,0,train
re,499,499RE_s0c0x151288-1600y91091-1200m2472.png,1,2,train
re,20,020RE_s7c0x127765-1600y105810-1200m75.png,0,0,train
re,182,182RE_s0c0x78918-1600y44978-1200m5269.png,1,0,train
re,785,785RE_s0c0x147665-1600y24594-1200m1053.png,0,0,train
re,20,020RE_s7c0x132040-1600y106878-1200m103.png,0,0,train
re,77,077RE_s1c0x277496-1600y52518-1200m2661.png,0,0,train
re,470,470RE_s0c0x156802-1600y10699-1200m89.png,2,3,train
re,460,460RE_s0c0x184078-1600y17160-1200m626.png,3,3,train
re,588,588RE_s2c0x237310-1600y109450-1200m3633.png,3,3,train
re,379,379RE_s0c0x147050-1600y60000-1200m7312.png,3,3,train
re,670,670RE_s3c0x172608-1600y77602-1200m290.png,3,3,train
re,460,460RE_s0c0x149804-1600y45023-1200m1870.png,3,3,train
re,699,699RE_s1c0x228085-1600y73973-1200m3978.png,3,3,train
re,865,865RE_s1c0x209591-1600y55716-1200m4887.png,3,3,train
re,53,053RE_s4c0x132586-1600y83632-1200m2470.png,3,3,train
re,385,385RE_s1c0x110749-1600y15022-1200m279.png,3,3,train
re,58,058RE_s2c0x155724-1600y83588-1200m4224.png,0,0,train
re,54,054RE_s0c0x161091-1600y75044-1200m2741.png,3,3,train
re,51,051RE_s1c0x230052-1600y124315-1200m5492.png,2,1,train
re,54,054RE_s0c0x178208-1600y69681-1200m2521.png,3,3,train
re,224,224RE_s1c0x158422-1600y26904-1200m183.png,0,3,train
re,477,477RE_s5c0x189923-1600y73399-1200m121.png,3,3,train
re,335,335RE_s0c0x140808-1600y57876-1200m2515.png,2,2,train
re,334,334RE_s0c0x166971-1600y98612-1200m3985.png,3,2,train
re,22,022RE_s5c0x100703-1600y163962-1200m557.png,2,3,train
re,74,074RE_s2c0x81741-1600y82953-1200m881.png,3,3,train
re,638,638RE_s1c0x192340-1600y195067-1200m24401.png,0,0,train
re,379,379RE_s0c0x129888-1600y80330-1200m9889.png,3,3,train
re,534,534RE_s0c0x129675-1600y94276-1200m3386.png,1,0,train
re,490,490RE_s3c0x116330-1600y125000-1200m2879.png,3,0,train
re,662,662RE_s3c0x121987-1600y143364-1200m1841.png,3,1,train
re,195,195RE_s1c0x57865-1600y53605-1200m1893.png,3,3,train
re,865,865RE_s1c0x203884-1600y48236-1200m4116.png,3,3,train
re,491,491RE_s1c0x166658-1600y26778-1200m893.png,1,3,train
re,444,444RE_s1c0x224953-1600y84676-1200m5224.png,3,3,train
re,785,785RE_s4c0x194283-1600y82964-1200m825.png,0,0,train
re,53,053RE_s4c0x156892-1600y41845-1200m677.png,2,3,train
re,53,053RE_s4c0x165451-1600y28984-1200m350.png,3,3,train
re,203,203RE_s1c0x150694-1600y80389-1200m4546.png,0,0,train
re,520,520RE_s2c0x113558-1600y18230-1200m714.png,1,1,train
re,304,304RE_s1c0x94870-1600y12866-1200m151.png,3,3,train
re,73,073RE_s1c0x127752-1600y93251-1200m3289.png,2,2,train
re,195,195RE_s1c0x57864-1600y52535-1200m1806.png,3,3,train
re,214,214RE_s2c0x171017-1600y39620-1200m1233.png,3,3,train
re,385,385RE_s1c0x97908-1600y31094-1200m1352.png,3,3,train
re,24,024RE_s3c0x158196-1600y125096-1200m687.png,1,1,train
re,349,349RE_s1c0x72990-1600y50370-1200m3844.png,3,3,train
re,77,077RE_s1c0x290383-1600y26828-1200m1146.png,0,0,train
re,491,491RE_s1c0x168090-1600y31059-1200m1095.png,1,3,train
re,360,360RE_s0c0x151113-1600y53602-1200m1423.png,3,3,train
re,379,379RE_s0c0x118459-1600y62129-1200m7583.png,3,3,train
re,662,662RE_s3c0x103410-1600y111208-1200m101.png,3,1,train
re,699,699RE_s1c0x182400-1600y127528-1200m7159.png,3,3,train
re,699,699RE_s1c0x205238-1600y116836-1200m6830.png,3,3,train
re,699,699RE_s1c0x185246-1600y128599-1200m7191.png,3,3,train
re,73,073RE_s1c0x64955-1600y86818-1200m2869.png,3,2,train
re,457,457RE_s1c0x215767-1600y86776-1200m3851.png,3,3,train
re,273,273RE_s1c0x78956-1600y65361-1200m4009.png,3,3,train
re,625,625RE_s0c0x119581-1600y66437-1200m2854.png,3,0,train
re,349,349RE_s1c0x190166-1600y70744-1200m6149.png,3,3,train
re,460,460RE_s0c0x178358-1600y39663-1200m1647.png,3,3,train
re,62,062RE_s1c0x194246-1600y88932-1200m8948.png,3,3,train
re,366,366RE_s0c0x153929-1600y83594-1200m3797.png,2,3,train
re,64,064RE_s0c0x58611-1600y28927-1200m662.png,3,3,train
re,638,638RE_s2c0x73311-1600y184334-1200m893.png,0,0,train
re,668,668RE_s1c0x103584-1600y14994-1200m510.png,3,3,train
re,899,899RE_s1c0x280408-1600y62157-1200m2318.png,3,2,train
re,22,022RE_s0c0x225714-1600y38586-1200m1450.png,1,3,train
re,662,662RE_s3c0x141965-1600y135824-1200m1337.png,2,1,train
re,56,056RE_s2c0x284774-1600y31099-1200m1148.png,1,0,train
re,631,631RE_s0c0x168135-1600y138247-1200m6935.png,1,3,train
re,444,444RE_s1c0x206441-1600y37549-1200m1525.png,3,3,train
re,693,693RE_s2c0x155498-1600y141501-1200m6167.png,0,2,train
re,96,096RE_s2c0x184171-1600y79286-1200m3876.png,2,2,train
re,171,171RE_s0c0x171386-1600y143580-1200m12235.png,3,3,train
re,214,214RE_s2c0x145297-1600y36412-1200m1057.png,3,3,train
re,875,875RE_s0c0x130939-1600y54648-1200m2365.png,3,2,train
re,195,195RE_s1c0x72181-1600y51452-1200m1731.png,3,3,train
re,491,491RE_s1c0x140906-1600y86786-1200m2937.png,1,3,train
re,448,448RE_s1c0x119355-1600y56775-1200m1315.png,3,3,train
re,62,062RE_s1c0x161380-1600y61074-1200m5946.png,3,3,train
re,331,331RE_s3c0x194881-1600y131766-1200m11037.png,0,0,train
re,168,168RE_s3c0x158330-1600y56744-1200m1344.png,3,3,train
re,490,490RE_s3c0x182071-1600y108956-1200m1168.png,3,0,train
re,699,699RE_s1c0x246687-1600y65407-1200m3236.png,3,3,train
re,64,064RE_s0c0x48625-1600y60000-1200m2525.png,3,3,train
re,444,444RE_s1c0x236405-1600y82546-1200m5110.png,3,3,train
re,785,785RE_s0c0x163362-1600y24598-1200m1064.png,0,0,train
re,400,400RE_s0c0x150841-1600y108204-1200m8600.png,2,3,train
re,334,334RE_s0c0x99827-1600y92141-1200m3513.png,3,2,train
re,349,349RE_s1c0x201580-1600y61103-1200m5080.png,3,3,train
re,51,051RE_s1c0x227190-1600y124316-1200m5490.png,2,1,train
re,899,899RE_s1c0x280410-1600y67520-1200m2578.png,3,2,train
re,668,668RE_s1c0x162150-1600y126494-1200m12669.png,3,3,train
re,451,451RE_s1c0x177697-1600y101824-1200m13340.png,0,0,train
re,444,444RE_s1c0x203501-1600y71823-1200m4435.png,2,3,train
re,24,024RE_s3c0x153916-1600y142240-1200m1242.png,1,1,train
re,168,168RE_s3c0x165476-1600y66374-1200m1807.png,3,3,train
re,457,457RE_s1c0x215767-1600y85708-1200m3765.png,3,3,train
re,73,073RE_s1c0x70660-1600y85746-1200m2821.png,3,2,train
re,331,331RE_s5c0x77572-1600y121674-1200m1109.png,0,0,train
re,491,491RE_s1c0x146605-1600y85715-1200m2924.png,1,3,train
re,380,380RE_s1c0x136825-1600y49273-1200m3531.png,3,0,train
re,195,195RE_s1c0x80726-1600y60016-1200m2462.png,3,3,train
re,451,451RE_s1c0x204853-1600y27890-1200m2950.png,0,0,train
re,273,273RE_s1c0x50379-1600y77129-1200m4860.png,3,3,train
re,73,073RE_s1c0x117734-1600y100750-1200m3821.png,2,2,train
re,214,214RE_s2c0x145300-1600y35344-1200m1005.png,3,3,train
re,168,168RE_s3c0x136856-1600y104944-1200m3632.png,3,3,train
re,96,096RE_s2c0x162751-1600y125352-1200m7819.png,2,2,train
re,168,168RE_s3c0x156850-1600y79228-1200m2450.png,3,3,train
re,379,379RE_s0c0x111343-1600y14963-1200m1221.png,3,3,train
re,273,273RE_s1c0x51804-1600y72838-1200m4552.png,3,3,train
re,458,458RE_s0c0x245333-1600y80409-1200m7581.png,0,0,train
re,273,273RE_s1c0x81812-1600y67500-1200m4177.png,3,3,train
re,865,865RE_s1c0x211017-1600y49308-1200m4231.png,3,3,train
re,53,053RE_s4c0x164015-1600y33295-1200m466.png,3,3,train
re,51,051RE_s1c0x230052-1600y121078-1200m5342.png,2,1,train
re,22,022RE_s5c0x103552-1600y163964-1200m559.png,3,3,train
re,534,534RE_s0c0x165385-1600y4278-1200m49.png,1,0,train
re,349,349RE_s1c0x105839-1600y44994-1200m3259.png,3,3,train
re,441,441RE_s3c0x199736-1600y104491-1200m1685.png,3,2,train
re,448,448RE_s1c0x167915-1600y86776-1200m2452.png,3,3,train
re,195,195RE_s1c0x83581-1600y27880-1200m499.png,3,3,train
re,171,171RE_s0c0x229926-1600y148932-1200m12755.png,3,3,train
re,73,073RE_s1c0x114880-1600y90041-1200m3062.png,2,2,train
re,331,331RE_s3c0x159300-1600y62066-1200m5224.png,0,0,train
re,444,444RE_s1c0x232138-1600y66491-1200m4095.png,2,3,train
re,865,865RE_s1c0x186708-1600y23569-1200m1680.png,3,3,train
re,168,168RE_s3c0x162600-1600y66372-1200m1805.png,3,3,train
re,379,379RE_s0c0x188468-1600y71780-1200m8900.png,3,3,train
re,251,251RE_s0c0x121996-1600y76075-1200m1897.png,3,3,train
re,22,022RE_s5c0x104974-1600y163964-1200m560.png,3,3,train
re,670,670RE_s3c0x172605-1600y67933-1200m127.png,3,3,train
re,73,073RE_s1c0x66382-1600y85749-1200m2818.png,2,2,train
re,670,670RE_s3c0x169743-1600y67932-1200m125.png,3,3,train
re,588,588RE_s2c0x227293-1600y109446-1200m3626.png,3,3,train
re,251,251RE_s0c0x86380-1600y68566-1200m1623.png,3,3,train
re,668,668RE_s1c0x166426-1600y132929-1200m13264.png,3,3,train
re,380,380RE_s1c0x209690-1600y21436-1200m946.png,2,0,train
re,899,899RE_s1c0x270435-1600y58954-1200m2155.png,3,2,train
re,64,064RE_s0c0x44327-1600y57859-1200m2406.png,3,3,train
re,58,058RE_s1c0x121946-1600y136710-1200m2936.png,0,0,train
re,451,451RE_s1c0x229147-1600y58980-1200m7280.png,0,0,train
re,638,638RE_s1c0x146624-1600y67498-1200m8069.png,0,0,train
re,304,304RE_s1c0x92002-1600y18243-1200m244.png,3,3,train
re,520,520RE_s2c0x153527-1600y30043-1200m1488.png,1,1,train
re,24,024RE_s3c0x156770-1600y122952-1200m622.png,1,1,train
re,638,638RE_s1c0x148052-1600y63186-1200m7439.png,0,0,train
re,480,480RE_s2c0x89379-1600y65606-1200m908.png,0,0,train
re,22,022RE_s5c0x92140-1600y160747-1200m424.png,2,3,train
re,49,049RE_s1c0x85276-1600y26759-1200m1104.png,0,0,train
re,73,073RE_s1c0x133471-1600y94317-1200m3369.png,2,2,train
re,385,385RE_s1c0x83602-1600y26810-1200m1025.png,3,3,train
re,331,331RE_s3c0x117861-1600y52420-1200m4211.png,0,0,train
re,53,053RE_s4c0x166875-1600y30065-1200m378.png,3,3,train
re,470,470RE_s0c0x156804-1600y12841-1200m115.png,2,3,train
re,785,785RE_s0c0x197390-1600y23585-1200m1005.png,0,0,train
re,54,054RE_s0c0x155369-1600y84714-1200m3190.png,3,3,train
re,49,049RE_s1c0x88130-1600y32114-1200m1495.png,0,0,train
re,51,051RE_s1c0x228622-1600y125390-1200m5540.png,2,1,train
re,224,224RE_s1c0x164123-1600y20492-1200m89.png,0,3,train
re,366,366RE_s0c0x163931-1600y88960-1200m4153.png,2,3,train
re,74,074RE_s0c0x103463-1600y4297-1200m44.png,3,3,train
re,64,064RE_s0c0x85768-1600y49261-1200m1881.png,3,3,train
re,74,074RE_s2c0x76044-1600y77598-1200m666.png,2,3,train
re,251,251RE_s0c0x86380-1600y66428-1200m1546.png,3,3,train
re,349,349RE_s1c0x194456-1600y78233-1200m6700.png,3,3,train
re,638,638RE_s1c0x175186-1600y84646-1200m10509.png,0,0,train
re,349,349RE_s1c0x187302-1600y58962-1200m4846.png,3,3,train
re,214,214RE_s2c0x126741-1600y24625-1200m478.png,3,3,train
re,22,022RE_s2c0x107746-1600y97859-1200m760.png,2,3,train
re,491,491RE_s1c0x159518-1600y21434-1200m605.png,1,3,train
re,96,096RE_s2c0x212718-1600y52488-1200m1524.png,1,2,train
re,273,273RE_s1c0x54667-1600y50329-1200m2846.png,3,3,train
re,695,695RE_s0c0x98953-1600y118963-1200m2855.png,3,3,train
re,490,490RE_s3c0x120619-1600y133567-1200m3843.png,3,0,train
re,355,355RE_s0c0x92397-1600y40714-1200m1120.png,3,3,train
re,470,470RE_s0c0x128211-1600y60026-1200m993.png,2,3,train
re,458,458RE_s0c0x202481-1600y85747-1200m7936.png,0,0,train
re,366,366RE_s0c0x138241-1600y83592-1200m3786.png,2,3,train
re,668,668RE_s1c0x169270-1600y132929-1200m13266.png,3,3,train
re,214,214RE_s2c0x143869-1600y36410-1200m1056.png,3,3,train
re,859,859RE_s0c0x161095-1600y87908-1200m7941.png,3,2,train
re,171,171RE_s0c0x101406-1600y50352-1200m3484.png,3,3,train
re,875,875RE_s0c0x120925-1600y94292-1200m4452.png,3,2,train
re,20,020RE_s7c0x140616-1600y118673-1200m713.png,0,0,train
re,95,095RE_s1c0x167711-1600y117860-1200m7586.png,0,0,train
re,166,166RE_s1c0x193935-1600y49331-1200m1374.png,0,0,train
re,168,168RE_s3c0x176850-1600y87808-1200m2926.png,3,3,train
re,385,385RE_s1c0x105055-1600y15024-1200m275.png,3,3,train
re,49,049RE_s1c0x96701-1600y36401-1200m1796.png,0,0,train
re,451,451RE_s1c0x163448-1600y109328-1200m14383.png,0,0,train
re,785,785RE_s0c0x188823-1600y21436-1200m840.png,0,0,train
re,203,203RE_s1c0x129261-1600y139277-1200m8368.png,0,0,train
re,73,073RE_s1c0x136323-1600y105040-1200m4130.png,2,2,train
re,377,377RE_s1c0x142808-1600y32128-1200m1155.png,0,0,train
re,693,693RE_s2c0x191221-1600y39712-1200m1671.png,2,2,train
re,859,859RE_s0c0x173935-1600y46121-1200m4042.png,3,2,train
re,203,203RE_s1c0x93545-1600y147862-1200m8767.png,0,0,train
re,77,077RE_s1c0x294672-1600y36456-1200m1705.png,0,0,train
re,95,095RE_s1c0x186299-1600y107154-1200m6661.png,0,0,train
re,355,355RE_s0c0x103805-1600y62118-1200m1863.png,3,3,train
re,74,074RE_s2c0x78894-1600y80810-1200m797.png,2,3,train
re,457,457RE_s1c0x201503-1600y105008-1200m5220.png,2,3,train
re,49,049RE_s1c0x83855-1600y27830-1200m1182.png,0,0,train
re,182,182RE_s0c0x81784-1600y56770-1200m6676.png,1,0,train
re,203,203RE_s1c0x154998-1600y73940-1200m4136.png,0,0,train
re,695,695RE_s0c0x94644-1600y120030-1200m2864.png,3,3,train
re,166,166RE_s1c0x173865-1600y56824-1200m1635.png,0,0,train
re,448,448RE_s1c0x113623-1600y47148-1200m919.png,3,3,train
re,477,477RE_s5c0x161369-1600y86248-1200m379.png,3,3,train
re,360,360RE_s0c0x158250-1600y67524-1200m1848.png,3,3,train
re,168,168RE_s3c0x138283-1600y110314-1200m3749.png,3,3,train
re,859,859RE_s0c0x159661-1600y55743-1200m5032.png,3,2,train
re,363,363RE_s1c0x171154-1600y60017-1200m2142.png,2,2,train
re,178,178RE_s2c0x142078-1600y141387-1200m3649.png,0,0,train
re,707,707RE_s1c0x116448-1600y58994-1200m3177.png,3,3,train
re,74,074RE_s0c0x60587-1600y37496-1200m1152.png,3,3,train
re,693,693RE_s2c0x164047-1600y124340-1200m5897.png,2,2,train
re,366,366RE_s0c0x141097-1600y54670-1200m1605.png,2,3,train
re,470,470RE_s0c0x148243-1600y36436-1200m463.png,2,3,train
re,400,400RE_s0c0x230939-1600y26765-1200m2025.png,2,3,train
re,363,363RE_s1c0x168300-1600y46067-1200m1383.png,2,2,train
re,448,448RE_s1c0x176460-1600y89985-1200m2561.png,3,3,train
re,490,490RE_s3c0x86341-1600y126060-1200m2980.png,2,0,train
re,451,451RE_s1c0x237710-1600y140409-1200m18640.png,0,0,train
re,96,096RE_s2c0x246999-1600y59982-1200m2146.png,1,2,train
re,251,251RE_s0c0x99205-1600y37505-1200m574.png,3,3,train
re,218,218RE_s2c0x126800-1600y100785-1200m2604.png,3,3,train
re,22,022RE_s5c0x102126-1600y159678-1200m389.png,2,3,train
re,73,073RE_s1c0x129182-1600y100756-1200m3829.png,3,2,train
re,51,051RE_s1c0x228620-1600y128599-1200m5681.png,2,1,train
re,62,062RE_s1c0x202798-1600y111434-1200m11469.png,3,3,train
re,203,203RE_s1c0x123542-1600y144642-1200m8642.png,0,0,train
re,203,203RE_s1c0x126403-1600y139278-1200m8366.png,0,0,train
re,693,693RE_s2c0x159773-1600y116850-1200m5769.png,2,2,train
re,251,251RE_s0c0x103476-1600y31081-1200m378.png,3,3,train
re,625,625RE_s0c0x119583-1600y75010-1200m3271.png,3,0,train
re,74,074RE_s0c0x73458-1600y26802-1200m711.png,3,3,train
re,400,400RE_s0c0x149424-1600y107134-1200m8583.png,2,3,train
re,360,360RE_s0c0x155400-1600y68590-1200m1875.png,3,3,train
re,448,448RE_s1c0x172183-1600y89985-1200m2558.png,3,3,train
re,460,460RE_s0c0x182644-1600y11816-1200m378.png,3,3,train
re,379,379RE_s0c0x278490-1600y37516-1200m4341.png,3,3,train
re,355,355RE_s0c0x106660-1600y56776-1200m1692.png,3,3,train
re,56,056RE_s2c0x271949-1600y123227-1200m6802.png,0,0,train
re,58,058RE_s2c0x205732-1600y48232-1200m1688.png,0,0,train
re,22,022RE_s5c0x99280-1600y165033-1200m593.png,2,3,train
re,95,095RE_s1c0x119154-1600y59968-1200m3304.png,0,0,train
re,251,251RE_s0c0x121994-1600y75003-1200m1863.png,3,3,train
re,195,195RE_s1c0x160701-1600y53635-1200m1965.png,3,3,train
re,668,668RE_s1c0x159296-1600y125418-1200m12562.png,3,3,train
re,53,053RE_s4c0x166876-1600y28985-1200m351.png,3,3,train
re,335,335RE_s0c0x110796-1600y22514-1200m365.png,2,2,train
re,859,859RE_s0c0x203951-1600y75037-1200m7001.png,3,2,train
re,458,458RE_s0c0x191075-1600y90021-1200m8194.png,0,0,train
re,380,380RE_s1c0x145414-1600y46065-1200m3207.png,2,0,train
re,457,457RE_s1c0x207193-1600y122140-1200m6452.png,3,3,train
re,349,349RE_s1c0x140126-1600y68586-1200m5877.png,3,3,train
re,695,695RE_s0c0x97516-1600y124321-1200m2914.png,3,3,train
re,218,218RE_s2c0x115397-1600y85777-1200m1758.png,3,3,train
re,20,020RE_s7c0x109208-1600y104740-1200m41.png,0,0,train
re,588,588RE_s2c0x203044-1600y44096-1200m796.png,3,3,train
re,334,334RE_s0c0x95545-1600y63240-1200m1692.png,3,2,train
re,203,203RE_s1c0x157862-1600y71788-1200m4003.png,0,0,train
re,214,214RE_s2c0x156758-1600y22486-1200m405.png,3,3,train
re,73,073RE_s1c0x70643-1600y92153-1200m3187.png,3,2,train
re,96,096RE_s2c0x232733-1600y68590-1200m2893.png,2,2,train
re,95,095RE_s1c0x201976-1600y53574-1200m2833.png,0,0,train
re,334,334RE_s0c0x99820-1600y63244-1200m1695.png,2,2,train
re,477,477RE_s5c0x157074-1600y88396-1200m426.png,3,3,train
re,785,785RE_s7c0x142175-1600y143531-1200m413.png,0,0,train
re,96,096RE_s2c0x227026-1600y59980-1200m2132.png,2,2,train
re,203,203RE_s1c0x70680-1600y21431-1200m807.png,0,0,train
re,64,064RE_s0c0x81470-1600y66422-1200m2883.png,3,3,train
re,670,670RE_s3c0x174037-1600y64726-1200m77.png,3,3,train
re,859,859RE_s0c0x206799-1600y17167-1200m1050.png,3,2,train
re,218,218RE_s2c0x163942-1600y18293-1200m116.png,3,3,train
re,400,400RE_s0c0x185244-1600y11757-1200m400.png,2,3,train
re,335,335RE_s0c0x139383-1600y53576-1200m2288.png,2,2,train
re,62,062RE_s1c0x205650-1600y109280-1200m11221.png,3,3,train
re,73,073RE_s1c0x137756-1600y98604-1200m3682.png,2,2,train
re,58,058RE_s1c0x127665-1600y143127-1200m3460.png,0,0,train
re,195,195RE_s1c0x105027-1600y65379-1200m2919.png,3,3,train
re,699,699RE_s1c0x195224-1600y60010-1200m2736.png,3,3,train
re,101,101RE_s0c0x53497-1600y42832-1200m1967.png,3,3,train
re,400,400RE_s0c0x208115-1600y11762-1200m416.png,2,3,train
re,355,355RE_s0c0x100944-1600y33207-1200m861.png,3,3,train
re,707,707RE_s1c0x146436-1600y90072-1200m5917.png,3,3,train
re,477,477RE_s5c0x127092-1600y100146-1200m755.png,3,3,train
re,355,355RE_s0c0x108084-1600y55708-1200m1657.png,3,3,train
re,335,335RE_s0c0x105096-1600y41769-1200m1542.png,2,2,train
re,899,899RE_s3c0x253134-1600y175378-1200m4512.png,3,2,train
re,707,707RE_s1c0x190806-1600y40800-1200m1546.png,2,3,train
re,457,457RE_s1c0x201505-1600y103938-1200m5142.png,2,3,train
re,171,171RE_s0c0x217096-1600y20365-1200m864.png,2,3,train
re,457,457RE_s1c0x208633-1600y101803-1200m4991.png,2,3,train
re,859,859RE_s0c0x205382-1600y78276-1200m7298.png,3,2,train
re,171,171RE_s0c0x109978-1600y160734-1200m13736.png,3,3,train
re,95,095RE_s1c0x146312-1600y52489-1200m2705.png,0,0,train
re,785,785RE_s0c0x208847-1600y39670-1200m2527.png,0,0,train
re,448,448RE_s1c0x142184-1600y48216-1200m979.png,3,3,train
re,477,477RE_s5c0x125666-1600y98008-1200m679.png,3,3,train
re,668,668RE_s1c0x159296-1600y126493-1200m12667.png,3,3,train
re,360,360RE_s0c0x161100-1600y66456-1200m1822.png,3,3,train
re,444,444RE_s1c0x226440-1600y37553-1200m1538.png,3,3,train
re,875,875RE_s0c0x125216-1600y108262-1200m5093.png,3,2,train
re,668,668RE_s1c0x163572-1600y127570-1200m12774.png,3,3,train
re,54,054RE_s0c0x161093-1600y79360-1200m2937.png,3,3,train
re,707,707RE_s1c0x103584-1600y56844-1200m2911.png,3,3,train
re,307,307RE_s0c0x179237-1600y19317-1200m1120.png,3,1,train
re,520,520RE_s2c0x150680-1600y24697-1200m1165.png,1,1,train
re,490,490RE_s3c0x223493-1600y143264-1200m4941.png,2,0,train
re,670,670RE_s3c0x188288-1600y85115-1200m437.png,3,3,train
re,785,785RE_s4c0x194287-1600y67928-1200m286.png,0,0,train
re,304,304RE_s1c0x66208-1600y129715-1200m2975.png,3,3,train
re,588,588RE_s2c0x248738-1600y97671-1200m3151.png,3,3,train
re,490,490RE_s3c0x100654-1600y145374-1200m5076.png,3,0,train
re,490,490RE_s3c0x117761-1600y127138-1200m3124.png,3,0,train
re,360,360RE_s0c0x131086-1600y41816-1200m970.png,3,3,train
re,441,441RE_s3c0x189764-1600y114143-1200m2228.png,2,2,train
re,49,049RE_s1c0x85276-1600y27830-1200m1183.png,0,0,train
re,95,095RE_s1c0x120577-1600y62114-1200m3452.png,0,0,train
re,520,520RE_s2c0x123528-1600y20389-1200m865.png,1,1,train
re,699,699RE_s1c0x185248-1600y129668-1200m7218.png,3,3,train
re,273,273RE_s1c0x53239-1600y51399-1200m2927.png,3,3,train
re,171,171RE_s0c0x112825-1600y158591-1200m13556.png,3,3,train
re,95,095RE_s1c0x144885-1600y92118-1200m5312.png,0,0,train
re,360,360RE_s0c0x159675-1600y67524-1200m1849.png,3,3,train
re,334,334RE_s0c0x96970-1600y66452-1200m1907.png,3,2,train
re,534,534RE_s0c0x151121-1600y79297-1200m2739.png,1,0,train
re,899,899RE_s3c0x251702-1600y175376-1200m4511.png,3,2,train
re,20,020RE_s3c0x191243-1600y77354-1200m2084.png,0,0,train
re,366,366RE_s0c0x156775-1600y70738-1200m2861.png,3,3,train
re,470,470RE_s0c0x129642-1600y60027-1200m994.png,2,3,train
re,22,022RE_s5c0x90714-1600y165032-1200m587.png,2,3,train
re,899,899RE_s2c0x103536-1600y73058-1200m1822.png,3,2,train
re,457,457RE_s1c0x208635-1600y100735-1200m4913.png,3,3,train
re,379,379RE_s0c0x121325-1600y14968-1200m1228.png,3,3,train
re,631,631RE_s0c0x141020-1600y142431-1200m7168.png,1,3,train
re,334,334RE_s0c0x95546-1600y65383-1200m1835.png,3,2,train
re,218,218RE_s2c0x133956-1600y78293-1200m1384.png,3,3,train
re,168,168RE_s3c0x148256-1600y107098-1200m3692.png,3,3,train
re,54,054RE_s0c0x176787-1600y66472-1200m2394.png,3,3,train
re,441,441RE_s3c0x191186-1600y147368-1200m3963.png,3,2,train
re,101,101RE_s0c0x69205-1600y70724-1200m4442.png,3,3,train
re,251,251RE_s0c0x99204-1600y36433-1200m539.png,3,3,train
re,304,304RE_s1c0x82004-1600y33243-1200m564.png,3,3,train
re,363,363RE_s1c0x174018-1600y32160-1200m707.png,2,2,train
re,96,096RE_s2c0x239857-1600y62128-1200m2323.png,2,2,train
re,785,785RE_s4c0x182875-1600y75453-1200m554.png,0,0,train
re,518,518RE_s0c0x156662-1600y98586-1200m6263.png,0,0,train
re,864,864RE_s1c0x101919-1600y46075-1200m1125.png,0,0,train
re,51,051RE_s1c0x227188-1600y128600-1200m5680.png,2,1,train
re,20,020RE_s7c0x136324-1600y109013-1200m172.png,0,0,train
re,444,444RE_s1c0x229285-1600y40768-1200m1813.png,3,3,train
re,178,178RE_s2c0x130644-1600y114612-1200m3136.png,0,0,train
re,875,875RE_s0c0x132362-1600y59997-1200m2546.png,3,2,train
re,349,349RE_s1c0x181584-1600y6424-1200m140.png,3,3,train
re,168,168RE_s3c0x124000-1600y67429-1200m1827.png,3,3,train
re,54,054RE_s0c0x153939-1600y97568-1200m3832.png,3,3,train
re,859,859RE_s0c0x202527-1600y69674-1200m6491.png,3,2,train
re,588,588RE_s2c0x221578-1600y95522-1200m3026.png,3,3,train
re,73,073RE_s1c0x136326-1600y98604-1200m3681.png,3,2,train
re,451,451RE_s1c0x209134-1600y53593-1200m6504.png,0,0,train
re,695,695RE_s0c0x104678-1600y116824-1200m2836.png,3,3,train
re,334,334RE_s0c0x94125-1600y71794-1200m2250.png,2,2,train
re,168,168RE_s3c0x166890-1600y69604-1200m1957.png,3,3,train
re,77,077RE_s1c0x276067-1600y51448-1200m2596.png,0,0,train
re,51,051RE_s1c0x228621-1600y127530-1200m5634.png,2,1,train
re,168,168RE_s3c0x159708-1600y83513-1200m2690.png,3,3,train
re,203,203RE_s1c0x154996-1600y77171-1200m4342.png,0,0,train
re,385,385RE_s1c0x115025-1600y11816-1200m157.png,3,3,train
re,24,024RE_s3c0x156768-1600y125096-1200m686.png,1,1,train
re,662,662RE_s1c0x136567-1600y52510-1200m2193.png,3,1,train
re,218,218RE_s2c0x118250-1600y83633-1200m1648.png,3,3,train
re,366,366RE_s0c0x152510-1600y86807-1200m4013.png,2,3,train
re,22,022RE_s5c0x103552-1600y161821-1200m474.png,3,3,train
re,64,064RE_s0c0x41464-1600y61067-1200m2575.png,3,3,train
re,363,363RE_s1c0x165450-1600y5338-1200m47.png,2,2,train
re,385,385RE_s1c0x115033-1600y21446-1200m663.png,3,3,train
re,864,864RE_s1c0x103354-1600y57878-1200m1476.png,0,0,train
re,74,074RE_s2c0x101765-1600y64776-1200m222.png,3,3,train
re,441,441RE_s3c0x178354-1600y104485-1200m1670.png,2,2,train
re,95,095RE_s1c0x147731-1600y108216-1200m6729.png,0,0,train
re,182,182RE_s0c0x90338-1600y61044-1200m7188.png,1,0,train
re,864,864RE_s1c0x101924-1600y53572-1200m1348.png,0,0,train
re,74,074RE_s0c0x90583-1600y24654-1200m636.png,2,3,train
re,360,360RE_s0c0x161102-1600y73954-1200m2034.png,3,3,train
re,670,670RE_s3c0x174032-1600y69005-1200m145.png,3,3,train
re,203,203RE_s1c0x156431-1600y72864-1200m4070.png,0,0,train
re,214,214RE_s2c0x166733-1600y21420-1200m371.png,3,3,train
re,865,865RE_s1c0x209593-1600y46092-1200m3901.png,3,3,train
re,460,460RE_s0c0x116974-1600y56788-1200m2428.png,3,3,train
re,166,166RE_s1c0x186788-1600y47192-1200m1299.png,0,0,train
re,899,899RE_s3c0x280286-1600y132516-1200m2359.png,3,2,train
re,168,168RE_s3c0x161144-1600y80300-1200m2513.png,3,3,train
re,670,670RE_s3c0x175465-1600y71145-1200m175.png,3,3,train
re,458,458RE_s0c0x191076-1600y87877-1200m8066.png,0,0,train
re,477,477RE_s5c0x152789-1600y91612-1200m494.png,3,3,train
re,101,101RE_s0c0x104891-1600y23551-1200m593.png,1,3,train
re,251,251RE_s0c0x89240-1600y66429-1200m1548.png,3,3,train
re,625,625RE_s0c0x143754-1600y60036-1200m2551.png,3,0,train
re,74,074RE_s0c0x107747-1600y8586-1200m135.png,3,3,train
re,625,625RE_s0c0x121018-1600y98596-1200m4255.png,3,0,train
re,96,096RE_s2c0x189886-1600y139308-1200m9092.png,1,2,train
re,95,095RE_s1c0x127709-1600y63192-1200m3527.png,0,0,train
re,899,899RE_s3c0x274582-1600y144303-1200m3099.png,3,2,train
re,349,349RE_s1c0x215864-1600y56834-1200m4642.png,3,3,train
re,334,334RE_s0c0x98394-1600y72871-1200m2320.png,2,2,train
re,385,385RE_s1c0x105043-1600y53608-1200m2685.png,3,3,train
re,355,355RE_s0c0x68104-1600y51416-1200m1479.png,3,3,train
re,20,020RE_s7c0x126339-1600y106878-1200m99.png,0,0,train
re,448,448RE_s1c0x149330-1600y67514-1200m1819.png,3,3,train
re,22,022RE_s5c0x93572-1600y161819-1200m467.png,2,3,train
re,195,195RE_s1c0x57861-1600y50388-1200m1640.png,3,3,train
re,366,366RE_s0c0x153930-1600y77182-1200m3345.png,3,3,train
re,470,470RE_s0c0x158228-1600y13917-1200m128.png,2,3,train
re,307,307RE_s0c0x136377-1600y121097-1200m8755.png,3,1,train
re,670,670RE_s2c0x147851-1600y23588-1200m589.png,3,3,train
RE,996,seed0191.png,0,5,train
RE,996,seed0040.png,0,5,train
RE,996,seed0147.png,0,5,train
RE,996,seed0749.png,0,5,train
RE,996,seed0429.png,0,5,train
RE,996,seed0256.png,0,5,train
RE,996,seed0012.png,0,5,train
RE,996,seed0324.png,0,5,train
RE,996,seed0495.png,0,5,train
RE,996,seed0088.png,0,5,train
RE,996,seed0844.png,0,5,train
RE,996,seed0963.png,0,5,train
RE,996,seed0250.png,0,5,train
RE,996,seed0001.png,0,5,train
RE,996,seed0563.png,0,5,train
RE,996,seed0505.png,0,5,train
RE,996,seed0489.png,0,5,train
RE,996,seed0901.png,0,5,train
RE,996,seed0885.png,0,5,train
RE,996,seed0442.png,0,5,train
RE,996,seed0046.png,0,5,train
RE,996,seed0095.png,0,5,train
RE,996,seed0090.png,0,5,train
RE,996,seed0579.png,0,5,train
RE,996,seed0528.png,0,5,train
RE,996,seed0808.png,0,5,train
RE,996,seed0902.png,0,5,train
RE,996,seed0589.png,0,5,train
RE,996,seed0703.png,0,5,train
RE,996,seed0644.png,0,5,train
RE,996,seed0452.png,0,5,train
RE,996,seed0483.png,0,5,train
RE,996,seed0575.png,0,5,train
RE,996,seed0457.png,0,5,train
RE,996,seed0098.png,0,5,train
RE,996,seed0331.png,0,5,train
RE,996,seed0966.png,0,5,train
RE,996,seed0571.png,0,5,train
RE,996,seed0791.png,0,5,train
RE,996,seed0113.png,0,5,train
RE,996,seed0851.png,0,5,train
RE,996,seed0076.png,0,5,train
RE,996,seed0394.png,0,5,train
RE,996,seed0634.png,0,5,train
RE,996,seed0243.png,0,5,train
RE,996,seed0421.png,0,5,train
RE,996,seed0967.png,0,5,train
RE,996,seed0094.png,0,5,train
RE,996,seed0193.png,0,5,train
RE,996,seed0812.png,0,5,train
RE,996,seed0246.png,0,5,train
RE,996,seed0016.png,0,5,train
RE,996,seed0536.png,0,5,train
RE,996,seed0900.png,0,5,train
RE,996,seed0156.png,0,5,train
RE,996,seed0412.png,0,5,train
RE,996,seed0041.png,0,5,train
RE,996,seed0353.png,0,5,train
RE,996,seed0474.png,0,5,train
RE,996,seed0296.png,0,5,train
RE,996,seed0578.png,0,5,train
RE,996,seed0565.png,0,5,train
RE,996,seed0499.png,0,5,train
RE,996,seed0992.png,0,5,train
RE,996,seed0285.png,0,5,train
RE,996,seed0922.png,0,5,train
RE,996,seed0444.png,0,5,train
RE,996,seed0669.png,0,5,train
RE,996,seed0549.png,0,5,train
RE,996,seed0723.png,0,5,train
RE,996,seed0213.png,0,5,train
RE,996,seed0301.png,0,5,train
RE,996,seed0469.png,0,5,train
RE,996,seed0024.png,0,5,train
RE,996,seed0717.png,0,5,train
RE,996,seed0938.png,0,5,train
RE,996,seed0805.png,0,5,train
RE,996,seed0326.png,0,5,train
RE,996,seed0516.png,0,5,train
RE,996,seed0716.png,0,5,train
RE,996,seed0310.png,0,5,train
RE,996,seed0670.png,0,5,train
RE,996,seed0924.png,0,5,train
RE,996,seed0402.png,0,5,train
RE,996,seed0837.png,0,5,train
RE,996,seed0186.png,0,5,train
RE,996,seed0751.png,0,5,train
RE,996,seed0244.png,0,5,train
RE,996,seed0890.png,0,5,train
RE,996,seed0010.png,0,5,train
RE,996,seed0650.png,0,5,train
RE,996,seed0910.png,0,5,train
RE,996,seed0417.png,0,5,train
RE,996,seed0419.png,0,5,train
RE,996,seed0696.png,0,5,train
RE,996,seed0447.png,0,5,train
RE,996,seed0299.png,0,5,train
RE,996,seed0511.png,0,5,train
RE,996,seed0787.png,0,5,train
RE,996,seed0465.png,0,5,train
RE,997,seed0191.png,1,5,train
RE,997,seed0040.png,1,5,train
RE,997,seed0147.png,1,5,train
RE,997,seed0749.png,1,5,train
RE,997,seed0429.png,1,5,train
RE,997,seed0256.png,1,5,train
RE,997,seed0012.png,1,5,train
RE,997,seed0324.png,1,5,train
RE,997,seed0495.png,1,5,train
RE,997,seed0088.png,1,5,train
RE,997,seed0844.png,1,5,train
RE,997,seed0963.png,1,5,train
RE,997,seed0250.png,1,5,train
RE,997,seed0001.png,1,5,train
RE,997,seed0563.png,1,5,train
RE,997,seed0505.png,1,5,train
RE,997,seed0489.png,1,5,train
RE,997,seed0901.png,1,5,train
RE,997,seed0885.png,1,5,train
RE,997,seed0442.png,1,5,train
RE,997,seed0046.png,1,5,train
RE,997,seed0095.png,1,5,train
RE,997,seed0090.png,1,5,train
RE,997,seed0579.png,1,5,train
RE,997,seed0528.png,1,5,train
RE,997,seed0808.png,1,5,train
RE,997,seed0902.png,1,5,train
RE,997,seed0589.png,1,5,train
RE,997,seed0703.png,1,5,train
RE,997,seed0644.png,1,5,train
RE,997,seed0452.png,1,5,train
RE,997,seed0483.png,1,5,train
RE,997,seed0575.png,1,5,train
RE,997,seed0457.png,1,5,train
RE,997,seed0098.png,1,5,train
RE,997,seed0331.png,1,5,train
RE,997,seed0966.png,1,5,train
RE,997,seed0571.png,1,5,train
RE,997,seed0791.png,1,5,train
RE,997,seed0113.png,1,5,train
RE,997,seed0851.png,1,5,train
RE,997,seed0076.png,1,5,train
RE,997,seed0394.png,1,5,train
RE,997,seed0634.png,1,5,train
RE,997,seed0243.png,1,5,train
RE,997,seed0421.png,1,5,train
RE,997,seed0967.png,1,5,train
RE,997,seed0094.png,1,5,train
RE,997,seed0193.png,1,5,train
RE,997,seed0812.png,1,5,train
RE,997,seed0246.png,1,5,train
RE,997,seed0016.png,1,5,train
RE,997,seed0536.png,1,5,train
RE,997,seed0900.png,1,5,train
RE,997,seed0156.png,1,5,train
RE,997,seed0412.png,1,5,train
RE,997,seed0041.png,1,5,train
RE,997,seed0353.png,1,5,train
RE,997,seed0474.png,1,5,train
RE,997,seed0296.png,1,5,train
RE,997,seed0578.png,1,5,train
RE,997,seed0565.png,1,5,train
RE,997,seed0499.png,1,5,train
RE,997,seed0992.png,1,5,train
RE,997,seed0285.png,1,5,train
RE,997,seed0922.png,1,5,train
RE,997,seed0444.png,1,5,train
RE,997,seed0669.png,1,5,train
RE,997,seed0549.png,1,5,train
RE,997,seed0723.png,1,5,train
RE,997,seed0213.png,1,5,train
RE,997,seed0301.png,1,5,train
RE,997,seed0469.png,1,5,train
RE,997,seed0024.png,1,5,train
RE,997,seed0717.png,1,5,train
RE,997,seed0938.png,1,5,train
RE,997,seed0805.png,1,5,train
RE,997,seed0326.png,1,5,train
RE,997,seed0516.png,1,5,train
RE,997,seed0716.png,1,5,train
RE,997,seed0310.png,1,5,train
RE,997,seed0670.png,1,5,train
RE,997,seed0924.png,1,5,train
RE,997,seed0402.png,1,5,train
RE,997,seed0837.png,1,5,train
RE,997,seed0186.png,1,5,train
RE,997,seed0751.png,1,5,train
RE,997,seed0244.png,1,5,train
RE,997,seed0890.png,1,5,train
RE,997,seed0010.png,1,5,train
RE,997,seed0650.png,1,5,train
RE,997,seed0910.png,1,5,train
RE,997,seed0417.png,1,5,train
RE,997,seed0419.png,1,5,train
RE,997,seed0696.png,1,5,train
RE,997,seed0447.png,1,5,train
RE,997,seed0299.png,1,5,train
RE,997,seed0511.png,1,5,train
RE,997,seed0787.png,1,5,train
RE,997,seed0465.png,1,5,train
RE,998,seed0191.png,2,5,train
RE,998,seed0040.png,2,5,train
RE,998,seed0147.png,2,5,train
RE,998,seed0749.png,2,5,train
RE,998,seed0429.png,2,5,train
RE,998,seed0256.png,2,5,train
RE,998,seed0012.png,2,5,train
RE,998,seed0324.png,2,5,train
RE,998,seed0495.png,2,5,train
RE,998,seed0088.png,2,5,train
RE,998,seed0844.png,2,5,train
RE,998,seed0963.png,2,5,train
RE,998,seed0250.png,2,5,train
RE,998,seed0001.png,2,5,train
RE,998,seed0563.png,2,5,train
RE,998,seed0505.png,2,5,train
RE,998,seed0489.png,2,5,train
RE,998,seed0901.png,2,5,train
RE,998,seed0885.png,2,5,train
RE,998,seed0442.png,2,5,train
RE,998,seed0046.png,2,5,train
RE,998,seed0095.png,2,5,train
RE,998,seed0090.png,2,5,train
RE,998,seed0579.png,2,5,train
RE,998,seed0528.png,2,5,train
RE,998,seed0808.png,2,5,train
RE,998,seed0902.png,2,5,train
RE,998,seed0589.png,2,5,train
RE,998,seed0703.png,2,5,train
RE,998,seed0644.png,2,5,train
RE,998,seed0452.png,2,5,train
RE,998,seed0483.png,2,5,train
RE,998,seed0575.png,2,5,train
RE,998,seed0457.png,2,5,train
RE,998,seed0098.png,2,5,train
RE,998,seed0331.png,2,5,train
RE,998,seed0966.png,2,5,train
RE,998,seed0571.png,2,5,train
RE,998,seed0791.png,2,5,train
RE,998,seed0113.png,2,5,train
RE,998,seed0851.png,2,5,train
RE,998,seed0076.png,2,5,train
RE,998,seed0394.png,2,5,train
RE,998,seed0634.png,2,5,train
RE,998,seed0243.png,2,5,train
RE,998,seed0421.png,2,5,train
RE,998,seed0967.png,2,5,train
RE,998,seed0094.png,2,5,train
RE,998,seed0193.png,2,5,train
RE,998,seed0812.png,2,5,train
RE,998,seed0246.png,2,5,train
RE,998,seed0016.png,2,5,train
RE,998,seed0536.png,2,5,train
RE,998,seed0900.png,2,5,train
RE,998,seed0156.png,2,5,train
RE,998,seed0412.png,2,5,train
RE,998,seed0041.png,2,5,train
RE,998,seed0353.png,2,5,train
RE,998,seed0474.png,2,5,train
RE,998,seed0296.png,2,5,train
RE,998,seed0578.png,2,5,train
RE,998,seed0565.png,2,5,train
RE,998,seed0499.png,2,5,train
RE,998,seed0992.png,2,5,train
RE,998,seed0285.png,2,5,train
RE,998,seed0922.png,2,5,train
RE,998,seed0444.png,2,5,train
RE,998,seed0669.png,2,5,train
RE,998,seed0549.png,2,5,train
RE,998,seed0723.png,2,5,train
RE,998,seed0213.png,2,5,train
RE,998,seed0301.png,2,5,train
RE,998,seed0469.png,2,5,train
RE,998,seed0024.png,2,5,train
RE,998,seed0717.png,2,5,train
RE,998,seed0938.png,2,5,train
RE,998,seed0805.png,2,5,train
RE,998,seed0326.png,2,5,train
RE,998,seed0516.png,2,5,train
RE,998,seed0716.png,2,5,train
RE,998,seed0310.png,2,5,train
RE,998,seed0670.png,2,5,train
RE,998,seed0924.png,2,5,train
RE,998,seed0402.png,2,5,train
RE,998,seed0837.png,2,5,train
RE,998,seed0186.png,2,5,train
RE,998,seed0751.png,2,5,train
RE,998,seed0244.png,2,5,train
RE,998,seed0890.png,2,5,train
RE,998,seed0010.png,2,5,train
RE,998,seed0650.png,2,5,train
RE,998,seed0910.png,2,5,train
RE,998,seed0417.png,2,5,train
RE,998,seed0419.png,2,5,train
RE,998,seed0696.png,2,5,train
RE,998,seed0447.png,2,5,train
RE,998,seed0299.png,2,5,train
RE,998,seed0511.png,2,5,train
RE,998,seed0787.png,2,5,train
RE,998,seed0465.png,2,5,train
RE,999,seed0191.png,3,5,train
RE,999,seed0040.png,3,5,train
RE,999,seed0147.png,3,5,train
RE,999,seed0749.png,3,5,train
RE,999,seed0429.png,3,5,train
RE,999,seed0256.png,3,5,train
RE,999,seed0012.png,3,5,train
RE,999,seed0324.png,3,5,train
RE,999,seed0495.png,3,5,train
RE,999,seed0088.png,3,5,train
RE,999,seed0844.png,3,5,train
RE,999,seed0963.png,3,5,train
RE,999,seed0250.png,3,5,train
RE,999,seed0001.png,3,5,train
RE,999,seed0563.png,3,5,train
RE,999,seed0505.png,3,5,train
RE,999,seed0489.png,3,5,train
RE,999,seed0901.png,3,5,train
RE,999,seed0885.png,3,5,train
RE,999,seed0442.png,3,5,train
RE,999,seed0046.png,3,5,train
RE,999,seed0095.png,3,5,train
RE,999,seed0090.png,3,5,train
RE,999,seed0579.png,3,5,train
RE,999,seed0528.png,3,5,train
RE,999,seed0808.png,3,5,train
RE,999,seed0902.png,3,5,train
RE,999,seed0589.png,3,5,train
RE,999,seed0703.png,3,5,train
RE,999,seed0644.png,3,5,train
RE,999,seed0452.png,3,5,train
RE,999,seed0483.png,3,5,train
RE,999,seed0575.png,3,5,train
RE,999,seed0457.png,3,5,train
RE,999,seed0098.png,3,5,train
RE,999,seed0331.png,3,5,train
RE,999,seed0966.png,3,5,train
RE,999,seed0571.png,3,5,train
RE,999,seed0791.png,3,5,train
RE,999,seed0113.png,3,5,train
RE,999,seed0851.png,3,5,train
RE,999,seed0076.png,3,5,train
RE,999,seed0394.png,3,5,train
RE,999,seed0634.png,3,5,train
RE,999,seed0243.png,3,5,train
RE,999,seed0421.png,3,5,train
RE,999,seed0967.png,3,5,train
RE,999,seed0094.png,3,5,train
RE,999,seed0193.png,3,5,train
RE,999,seed0812.png,3,5,train
RE,999,seed0246.png,3,5,train
RE,999,seed0016.png,3,5,train
RE,999,seed0536.png,3,5,train
RE,999,seed0900.png,3,5,train
RE,999,seed0156.png,3,5,train
RE,999,seed0412.png,3,5,train
RE,999,seed0041.png,3,5,train
RE,999,seed0353.png,3,5,train
RE,999,seed0474.png,3,5,train
RE,999,seed0296.png,3,5,train
RE,999,seed0578.png,3,5,train
RE,999,seed0565.png,3,5,train
RE,999,seed0499.png,3,5,train
RE,999,seed0992.png,3,5,train
RE,999,seed0285.png,3,5,train
RE,999,seed0922.png,3,5,train
RE,999,seed0444.png,3,5,train
RE,999,seed0669.png,3,5,train
RE,999,seed0549.png,3,5,train
RE,999,seed0723.png,3,5,train
RE,999,seed0213.png,3,5,train
RE,999,seed0301.png,3,5,train
RE,999,seed0469.png,3,5,train
RE,999,seed0024.png,3,5,train
RE,999,seed0717.png,3,5,train
RE,999,seed0938.png,3,5,train
RE,999,seed0805.png,3,5,train
RE,999,seed0326.png,3,5,train
RE,999,seed0516.png,3,5,train
RE,999,seed0716.png,3,5,train
RE,999,seed0310.png,3,5,train
RE,999,seed0670.png,3,5,train
RE,999,seed0924.png,3,5,train
RE,999,seed0402.png,3,5,train
RE,999,seed0837.png,3,5,train
RE,999,seed0186.png,3,5,train
RE,999,seed0751.png,3,5,train
RE,999,seed0244.png,3,5,train
RE,999,seed0890.png,3,5,train
RE,999,seed0010.png,3,5,train
RE,999,seed0650.png,3,5,train
RE,999,seed0910.png,3,5,train
RE,999,seed0417.png,3,5,train
RE,999,seed0419.png,3,5,train
RE,999,seed0696.png,3,5,train
RE,999,seed0447.png,3,5,train
RE,999,seed0299.png,3,5,train
RE,999,seed0511.png,3,5,train
RE,999,seed0787.png,3,5,train
RE,999,seed0465.png,3,5,train
